<?xml version="1.0" encoding="UTF-8" standalone="no"?>
<!-- Created with Inkscape (http://www.inkscape.org/) -->

<svg
   xmlns:dc="http://purl.org/dc/elements/1.1/"
   xmlns:cc="http://creativecommons.org/ns#"
   xmlns:rdf="http://www.w3.org/1999/02/22-rdf-syntax-ns#"
   xmlns:svg="http://www.w3.org/2000/svg"
   xmlns="http://www.w3.org/2000/svg"
   xmlns:sodipodi="http://sodipodi.sourceforge.net/DTD/sodipodi-0.dtd"
   xmlns:inkscape="http://www.inkscape.org/namespaces/inkscape"
   id="svg2"
   width="36"
   version="1.0"
   height="16"
   sodipodi:docname="checkmarks.svg"
   inkscape:version="0.92.4 (5da689c313, 2019-01-14)">
  <defs
     id="defs24" />
  <sodipodi:namedview
     pagecolor="#ffffff"
     bordercolor="#666666"
     borderopacity="1"
     objecttolerance="10"
     gridtolerance="10"
     guidetolerance="10"
     inkscape:pageopacity="0"
     inkscape:pageshadow="2"
     inkscape:window-width="1098"
     inkscape:window-height="710"
     id="namedview22"
     showgrid="false"
     inkscape:zoom="25.023724"
     inkscape:cx="21.792736"
     inkscape:cy="4.8152587"
     inkscape:window-x="181"
     inkscape:window-y="177"
     inkscape:window-maximized="0"
     inkscape:current-layer="svg2"
     inkscape:pagecheckerboard="true"
     inkscape:showpageshadow="false" />
  <metadata
     id="metadata7">
    <rdf:RDF>
      <cc:Work
         rdf:about="">
        <dc:format>image/svg+xml</dc:format>
        <dc:type
           rdf:resource="http://purl.org/dc/dcmitype/StillImage" />
        <dc:title />
      </cc:Work>
    </rdf:RDF>
  </metadata>
  <g
     id="radiobutton">
    <path
       style="fill:#eaeaea;fill-opacity:1"
       inkscape:connector-curvature="0"
       d="M 7.9981,11 A 3,3 0 0 1 5,7.999 3,3 0 0 1 8.0009,5 3,3 0 0 1 11,8 3,3 0 0 1 8,11 V 8 Z"
       id="path4178" />
    <rect
       style="fill:#008080;fill-opacity:0"
       x="0"
       ry="1"
       width="16"
       height="16"
       y="0"
       id="rect4180" />
  </g>
  <g
     id="checkbox"
     transform="translate(0.47954498,-0.63939331)">
    <rect
       style="fill:#008080;fill-opacity:0"
       x="20"
       width="16"
       height="16"
       y="0"
       id="rect4165" />
    <path
       transform="matrix(0.22562743,0,0,0.22562743,16.651029,-3.135023)"
       style="fill:#eaeaea;fill-opacity:1"
       d="M 23.6,57.2 43.126197,74.656226 73.869014,29.569014 69.863944,26.4663 41.750479,59.598084 27.398084,51.801916 Z"
       id="polygon8"
       inkscape:connector-curvature="0"
       sodipodi:nodetypes="ccccccc" />
  </g>
</svg>
