<?xml version="1.0" encoding="UTF-8" standalone="no"?>
<!-- Created with Inkscape (http://www.inkscape.org/) -->

<svg
   xmlns:osb="http://www.openswatchbook.org/uri/2009/osb"
   xmlns:dc="http://purl.org/dc/elements/1.1/"
   xmlns:cc="http://creativecommons.org/ns#"
   xmlns:rdf="http://www.w3.org/1999/02/22-rdf-syntax-ns#"
   xmlns:svg="http://www.w3.org/2000/svg"
   xmlns="http://www.w3.org/2000/svg"
   xmlns:sodipodi="http://sodipodi.sourceforge.net/DTD/sodipodi-0.dtd"
   xmlns:inkscape="http://www.inkscape.org/namespaces/inkscape"
   id="svg2"
   sodipodi:version="0.32"
   inkscape:version="0.92.4 5da689c313, 2019-01-14"
   width="64.267128"
   height="44.000004"
   sodipodi:docname="frame.svg"
   inkscape:output_extension="org.inkscape.output.svgz.inkscape"
   inkscape:export-filename="/home/pinheiro/Documents/pics/estilo/plasma/wether.png"
   inkscape:export-xdpi="90"
   inkscape:export-ydpi="90"
   version="1.0"
   viewBox="0 0 64.267127 44.000004">
  <sodipodi:namedview
     inkscape:window-height="985"
     inkscape:window-width="1456"
     inkscape:pageshadow="2"
     inkscape:pageopacity="0"
     guidetolerance="10.0"
     gridtolerance="10.0"
     objecttolerance="10.0"
     borderopacity="1"
     bordercolor="#808080"
     pagecolor="#000000"
     id="base"
     inkscape:zoom="22.928977"
     inkscape:cx="32.133563"
     inkscape:cy="22.000002"
     inkscape:window-x="175"
     inkscape:window-y="115"
     inkscape:current-layer="svg2"
     showgrid="false"
     showguides="true"
     inkscape:guide-bbox="true"
     inkscape:snap-guide="false"
     inkscape:snap-bbox="true"
     inkscape:object-paths="true"
     inkscape:bbox-nodes="false"
     inkscape:snap-global="true"
     inkscape:object-nodes="true"
     inkscape:window-maximized="0"
     showborder="true"
     inkscape:showpageshadow="false"
     inkscape:pagecheckerboard="true"
     fit-margin-top="10"
     fit-margin-left="10"
     fit-margin-right="10"
     fit-margin-bottom="10">
    <inkscape:grid
       type="xygrid"
       id="grid5592"
       visible="true"
       enabled="true"
       empspacing="5"
       snapvisiblegridlinesonly="true"
       originx="-59.874395"
       originy="-38.55481" />
  </sodipodi:namedview>
  <metadata
     id="metadata7">
    <rdf:RDF>
      <cc:Work
         rdf:about="">
        <dc:format>image/svg+xml</dc:format>
        <dc:type
           rdf:resource="http://purl.org/dc/dcmitype/StillImage" />
        <dc:title />
      </cc:Work>
      <cc:Work
         rdf:about="">
        <dc:format>image/svg+xml</dc:format>
        <dc:type
           rdf:resource="http://purl.org/dc/dcmitype/StillImage" />
      </cc:Work>
    </rdf:RDF>
  </metadata>
  <defs
     id="defs5">
    <linearGradient
       id="border"
       osb:paint="solid">
      <stop
         style="stop-color:#7c7c7c;stop-opacity:1;"
         offset="0"
         id="stop895" />
    </linearGradient>
    <linearGradient
       id="center"
       osb:paint="solid">
      <stop
         style="stop-color:#000000;stop-opacity:0.79607844;"
         offset="0"
         id="stop1094" />
    </linearGradient>
  </defs>
  <style
     id="current-color-scheme"
     type="text/css">
      .ColorScheme-Text {
      }
      .ColorScheme-Background{
      }
      .ColorScheme-Highlight{
      }
      .ColorScheme-ViewText {
      }
      .ColorScheme-ViewBackground{
      }
      .ColorScheme-ViewHover {
      }
      .ColorScheme-ViewFocus{
      }
      .ColorScheme-ButtonText {
      }
      .ColorScheme-ButtonBackground{
      }
      .ColorScheme-ButtonHover {
      }
      .ColorScheme-ButtonFocus{
      }
  </style>
  <g
     transform="translate(-1617.8744,17.192624)"
     inkscape:label="layer1"
     style="display:none"
     id="layer1"
     inkscape:groupmode="layer" />
  <g
     transform="translate(-1617.8744,17.192624)"
     inkscape:label="glow"
     style="display:inline"
     id="layer2"
     inkscape:groupmode="layer" />
  <g
     inkscape:label="layer1"
     style="display:none"
     id="g2424"
     transform="translate(811.1866,-1462.6868)" />
  <g
     inkscape:label="glow"
     style="display:inline;fill:#333538;fill-opacity:0.94495413"
     id="g2426"
     transform="translate(811.1866,-1462.6868)" />
  <g
     inkscape:label="Layer 1"
     id="g3429"
     transform="translate(857.1644,-493.8241)"
     style="fill:#333538;fill-opacity:0.94495413" />
  <g
     inkscape:label="Layer 1"
     id="g19758"
     transform="translate(2643.4549,-110.36602)"
     style="fill:#333538;fill-opacity:0.94495413" />
  <g
     inkscape:label="Layer 1"
     id="g3935"
     transform="translate(3748.2801,-988.63539)"
     style="fill:#333538;fill-opacity:0.94495413" />
  <g
     inkscape:label="Layer 1"
     id="g8459"
     transform="translate(1350.4104,-1003.9826)"
     style="fill:#333538;fill-opacity:0.94495413" />
  <g
     inkscape:label="Layer 1"
     id="g28391"
     transform="translate(-0.4070965,324.62906)"
     style="fill:#333538;fill-opacity:0.94495413" />
  <g
     inkscape:label="Layer 1"
     id="g28393"
     transform="translate(1104.4181,-553.6403)"
     style="fill:#333538;fill-opacity:0.94495413" />
  <g
     inkscape:label="Layer 1"
     id="g28395"
     transform="translate(-1293.4516,-568.9875)"
     style="fill:#333538;fill-opacity:0.94495413" />
  <g
     inkscape:label="Layer 1"
     id="g6598"
     transform="translate(2146.0929,316.62906)"
     style="fill:#333538;fill-opacity:0.94495413" />
  <g
     inkscape:label="Layer 1"
     id="g6640"
     transform="translate(3250.9181,-561.6403)"
     style="fill:#333538;fill-opacity:0.94495413" />
  <g
     inkscape:label="Layer 1"
     id="g6716"
     transform="translate(853.0484,-576.98753)"
     style="fill:#333538;fill-opacity:0.94495413" />
  <g
     id="g6850"
     transform="matrix(1,0,0,-1,-317.8744,777.58606)"
     style="opacity:0.45945943;fill:#333538;fill-opacity:0.94495413" />
  <text
     xml:space="preserve"
     style="font-style:normal;font-variant:normal;font-weight:bold;font-stretch:normal;font-size:14px;line-height:125%;font-family:'Gill Sans';-inkscape-font-specification:'Bitstream Vera Sans Bold';text-align:justify;writing-mode:lr-tb;text-anchor:start;fill:#333538;fill-opacity:0.94495413;stroke:none;stroke-width:1px;stroke-linecap:butt;stroke-linejoin:miter;stroke-opacity:1"
     x="-93.874397"
     y="274.55481"
     id="text6990"><tspan
       sodipodi:role="line"
       id="tspan6992"
       x="-93.874397"
       y="286.94153" /></text>
  <text
     xml:space="preserve"
     style="font-style:normal;font-variant:normal;font-weight:bold;font-stretch:normal;font-size:14px;line-height:125%;font-family:'Gill Sans';text-align:justify;writing-mode:lr-tb;text-anchor:start;fill:#333538;fill-opacity:0.94495413;stroke:none;stroke-width:1px;stroke-linecap:butt;stroke-linejoin:miter;stroke-opacity:1"
     x="-70.596672"
     y="259.13538"
     id="text2705"><tspan
       sodipodi:role="line"
       id="tspan2707"
       x="-70.596672"
       y="271.52209" /></text>
  <rect
     y="14"
     x="14.000001"
     height="16"
     width="16"
     id="plain-center"
     style="opacity:0.2;fill:#000000;fill-opacity:1;stroke:none;stroke-width:11.17532063;stroke-linecap:square;stroke-miterlimit:4;stroke-dasharray:none;stroke-dashoffset:0;stroke-opacity:1" />
  <g
     transform="rotate(-90,23.649291,21.840513)"
     id="plain-top">
    <rect
       style="opacity:0.2;fill:#000000;fill-opacity:1;stroke:none;stroke-width:4.83905554;stroke-linecap:square;stroke-miterlimit:4;stroke-dasharray:none;stroke-dashoffset:0;stroke-opacity:1"
       id="rect911"
       width="3"
       height="16"
       x="31.489803"
       y="12.191224" />
    <rect
       y="12.191223"
       x="34.489803"
       height="16"
       width="1"
       id="rect913"
       style="opacity:1;fill:currentColor;fill-opacity:1;stroke:none;stroke-width:2.79382992;stroke-linecap:square;stroke-miterlimit:4;stroke-dasharray:none;stroke-dashoffset:0;stroke-opacity:1"
       class="ColorScheme-ButtonFocus" />
  </g>
  <g
     id="plain-topright"
     transform="translate(-0.46289,3.5781272)">
    <path
       id="path1031"
       d="m 30.462891,6.421875 v 1 h 3 v 3 h 1 v -4 z"
       style="opacity:1;fill:currentColor;fill-opacity:1;stroke:none;stroke-width:2.79383016;stroke-linecap:square;stroke-miterlimit:4;stroke-dasharray:none;stroke-dashoffset:0;stroke-opacity:1"
       inkscape:connector-curvature="0"
       class="ColorScheme-ButtonFocus" />
    <rect
       style="opacity:0.2;fill:#000000;fill-opacity:1;stroke:none;stroke-width:2.09537268;stroke-linecap:square;stroke-miterlimit:4;stroke-dasharray:none;stroke-dashoffset:0;stroke-opacity:1"
       id="rect935"
       width="3"
       height="3"
       x="30.462891"
       y="7.421875" />
  </g>
  <rect
     y="14.884665"
     x="47.267128"
     height="6"
     width="1"
     id="plain-hint-top-margin"
     style="opacity:1;fill:#000080;fill-opacity:1;fill-rule:evenodd;stroke:none;stroke-width:0.04930428;stroke-linecap:butt;stroke-linejoin:round;stroke-miterlimit:4;stroke-dasharray:none;stroke-dashoffset:0;stroke-opacity:1;paint-order:normal" />
  <rect
     style="opacity:1;fill:#000080;fill-opacity:1;fill-rule:evenodd;stroke:none;stroke-width:0.04930428;stroke-linecap:butt;stroke-linejoin:round;stroke-miterlimit:4;stroke-dasharray:none;stroke-dashoffset:0;stroke-opacity:1;paint-order:normal"
     id="plain-hint-bottom-margin"
     width="1"
     height="6"
     x="47.267128"
     y="21.884665" />
  <rect
     y="20.884665"
     x="48.267128"
     height="1"
     width="6"
     id="plain-hint-right-margin"
     style="opacity:1;fill:#000080;fill-opacity:1;fill-rule:evenodd;stroke:none;stroke-width:0.04930428;stroke-linecap:butt;stroke-linejoin:round;stroke-miterlimit:4;stroke-dasharray:none;stroke-dashoffset:0;stroke-opacity:1;paint-order:normal" />
  <rect
     style="opacity:1;fill:#000080;fill-opacity:1;fill-rule:evenodd;stroke:none;stroke-width:0.04930428;stroke-linecap:butt;stroke-linejoin:round;stroke-miterlimit:4;stroke-dasharray:none;stroke-dashoffset:0;stroke-opacity:1;paint-order:normal"
     id="plain-hint-left-margin"
     width="6"
     height="1"
     x="41.267128"
     y="20.884665" />
  <g
     id="plain-bottom"
     transform="matrix(0,1,1,0,1.808778,-1.4898006)">
    <rect
       y="12.191224"
       x="31.489803"
       height="16"
       width="3"
       id="rect882"
       style="opacity:0.2;fill:#000000;fill-opacity:1;stroke:none;stroke-width:4.83905554;stroke-linecap:square;stroke-miterlimit:4;stroke-dasharray:none;stroke-dashoffset:0;stroke-opacity:1" />
    <rect
       class="ColorScheme-ButtonFocus"
       style="opacity:1;fill:currentColor;fill-opacity:1;stroke:none;stroke-width:2.79382992;stroke-linecap:square;stroke-miterlimit:4;stroke-dasharray:none;stroke-dashoffset:0;stroke-opacity:1"
       id="rect884"
       width="1"
       height="16"
       x="34.489803"
       y="12.191223" />
  </g>
  <g
     id="plain-right"
     transform="translate(-1.4898023,1.8087769)">
    <rect
       y="12.191224"
       x="31.489803"
       height="16"
       width="3"
       id="rect888"
       style="opacity:0.2;fill:#000000;fill-opacity:1;stroke:none;stroke-width:4.83905554;stroke-linecap:square;stroke-miterlimit:4;stroke-dasharray:none;stroke-dashoffset:0;stroke-opacity:1" />
    <rect
       class="ColorScheme-ButtonFocus"
       style="opacity:1;fill:currentColor;fill-opacity:1;stroke:none;stroke-width:2.79382992;stroke-linecap:square;stroke-miterlimit:4;stroke-dasharray:none;stroke-dashoffset:0;stroke-opacity:1"
       id="rect890"
       width="1"
       height="16"
       x="34.489803"
       y="12.191223" />
  </g>
  <g
     id="plain-left"
     transform="rotate(-180,22.744901,21.095612)">
    <rect
       y="12.191224"
       x="31.489803"
       height="16"
       width="3"
       id="rect894"
       style="opacity:0.2;fill:#000000;fill-opacity:1;stroke:none;stroke-width:4.83905554;stroke-linecap:square;stroke-miterlimit:4;stroke-dasharray:none;stroke-dashoffset:0;stroke-opacity:1" />
    <rect
       class="ColorScheme-ButtonFocus"
       style="opacity:1;fill:currentColor;fill-opacity:1;stroke:none;stroke-width:2.79382992;stroke-linecap:square;stroke-miterlimit:4;stroke-dasharray:none;stroke-dashoffset:0;stroke-opacity:1"
       id="rect896"
       width="1"
       height="16"
       x="34.489803"
       y="12.191223" />
  </g>
  <g
     transform="matrix(-1,0,0,1,44.46289,3.5781259)"
     id="plain-topleft">
    <path
       class="ColorScheme-ButtonFocus"
       inkscape:connector-curvature="0"
       style="opacity:1;fill:currentColor;fill-opacity:1;stroke:none;stroke-width:2.79383016;stroke-linecap:square;stroke-miterlimit:4;stroke-dasharray:none;stroke-dashoffset:0;stroke-opacity:1"
       d="m 30.462891,6.421875 v 1 h 3 v 3 h 1 v -4 z"
       id="path900" />
    <rect
       y="7.421875"
       x="30.462891"
       height="3"
       width="3"
       id="rect902"
       style="opacity:0.2;fill:#000000;fill-opacity:1;stroke:none;stroke-width:2.09537268;stroke-linecap:square;stroke-miterlimit:4;stroke-dasharray:none;stroke-dashoffset:0;stroke-opacity:1" />
  </g>
  <g
     transform="matrix(1,0,0,-1,-0.46288999,40.421875)"
     id="plain-bottomright">
    <path
       class="ColorScheme-ButtonFocus"
       inkscape:connector-curvature="0"
       style="opacity:1;fill:currentColor;fill-opacity:1;stroke:none;stroke-width:2.79383016;stroke-linecap:square;stroke-miterlimit:4;stroke-dasharray:none;stroke-dashoffset:0;stroke-opacity:1"
       d="m 30.462891,6.421875 v 1 h 3 v 3 h 1 v -4 z"
       id="path906" />
    <rect
       y="7.421875"
       x="30.462891"
       height="3"
       width="3"
       id="rect908"
       style="opacity:0.2;fill:#000000;fill-opacity:1;stroke:none;stroke-width:2.09537268;stroke-linecap:square;stroke-miterlimit:4;stroke-dasharray:none;stroke-dashoffset:0;stroke-opacity:1" />
  </g>
  <g
     transform="rotate(-180,22.231446,20.210939)"
     id="plain-bottomleft">
    <path
       class="ColorScheme-ButtonFocus"
       inkscape:connector-curvature="0"
       style="opacity:1;fill:currentColor;fill-opacity:1;stroke:none;stroke-width:2.79383016;stroke-linecap:square;stroke-miterlimit:4;stroke-dasharray:none;stroke-dashoffset:0;stroke-opacity:1"
       d="m 30.462891,6.421875 v 1 h 3 v 3 h 1 v -4 z"
       id="path912" />
    <rect
       y="7.421875"
       x="30.462891"
       height="3"
       width="3"
       id="rect914"
       style="opacity:0.2;fill:#000000;fill-opacity:1;stroke:none;stroke-width:2.09537268;stroke-linecap:square;stroke-miterlimit:4;stroke-dasharray:none;stroke-dashoffset:0;stroke-opacity:1" />
  </g>
</svg>
