<?xml version="1.0" encoding="UTF-8" standalone="no"?>
<!-- Created with Inkscape (http://www.inkscape.org/) -->

<svg
   xmlns:osb="http://www.openswatchbook.org/uri/2009/osb"
   xmlns:dc="http://purl.org/dc/elements/1.1/"
   xmlns:cc="http://creativecommons.org/ns#"
   xmlns:rdf="http://www.w3.org/1999/02/22-rdf-syntax-ns#"
   xmlns:svg="http://www.w3.org/2000/svg"
   xmlns="http://www.w3.org/2000/svg"
   xmlns:xlink="http://www.w3.org/1999/xlink"
   xmlns:sodipodi="http://sodipodi.sourceforge.net/DTD/sodipodi-0.dtd"
   xmlns:inkscape="http://www.inkscape.org/namespaces/inkscape"
   id="svg7080"
   version="1.0"
   viewBox="0 0 37.739807 30.000007"
   height="30"
   width="37.739807"
   inkscape:version="0.92.4 5da689c313, 2019-01-14"
   sodipodi:docname="viewitem.svg">
  <sodipodi:namedview
     pagecolor="#ffffff"
     bordercolor="#666666"
     borderopacity="1"
     objecttolerance="10"
     gridtolerance="10"
     guidetolerance="10"
     inkscape:pageopacity="0"
     inkscape:pageshadow="2"
     inkscape:window-width="1359"
     inkscape:window-height="881"
     id="namedview28"
     showgrid="false"
     inkscape:zoom="13.671707"
     inkscape:cx="0.23698222"
     inkscape:cy="15.809308"
     inkscape:current-layer="svg7080"
     inkscape:pagecheckerboard="true"
     inkscape:window-x="483"
     inkscape:window-y="149"
     inkscape:window-maximized="0"
     inkscape:showpageshadow="false"
     fit-margin-top="5"
     fit-margin-left="5"
     fit-margin-right="5"
     fit-margin-bottom="5" />
  <defs
     id="defs7082">
    <linearGradient
       osb:paint="solid"
       id="linearGradient4795">
      <stop
         style="stop-color:#7c7c7c;stop-opacity:1;"
         offset="0"
         id="stop4793" />
    </linearGradient>
    <linearGradient
       y1="39"
       xlink:href="#linearGradient4795"
       y2="39"
       x1="-27"
       gradientUnits="userSpaceOnUse"
       x2="-15"
       gradientTransform="translate(36.000001,-24)"
       id="linearGradient4954" />
  </defs>
  <style
     id="current-color-scheme"
     type="text/css">
      .ColorScheme-Text {
      }
      .ColorScheme-Background{
      }
      .ColorScheme-Highlight{
      }
      .ColorScheme-ViewText {
      }
      .ColorScheme-ViewBackground{
      }
      .ColorScheme-ViewHover {
      }
      .ColorScheme-ViewFocus{
      }
      .ColorScheme-ButtonText {
      }
      .ColorScheme-ButtonBackground{
      }
      .ColorScheme-ButtonHover {
      }
      .ColorScheme-ButtonFocus{
      }
  </style>
  <metadata
     id="metadata7085">
    <rdf:RDF>
      <cc:Work
         rdf:about="">
        <dc:format>image/svg+xml</dc:format>
        <dc:type
           rdf:resource="http://purl.org/dc/dcmitype/StillImage" />
        <dc:title />
      </cc:Work>
    </rdf:RDF>
  </metadata>
  <rect
     id="hint-stretch-borders"
     height="2"
     x="30.739805"
     width="2"
     y="5.8039508"
     style="opacity:0.875;fill:#0000ff;stroke-width:0.40000001" />
  <path
     id="hover-center"
     d="m 9.000001,9 h 12 v 12 h -12 z"
     style="opacity:0.75;fill:currentColor;fill-opacity:1"
     inkscape:connector-curvature="0"
     class="ColorScheme-Highlight" />
  <path
     inkscape:connector-curvature="0"
     style="opacity:0.75;fill:currentColor;fill-opacity:1;stroke-width:0.57735032"
     d="m 25.000001,9 v 12 h -4 V 9 Z"
     id="hover-right"
     class="ColorScheme-Highlight" />
  <path
     inkscape:connector-curvature="0"
     style="fill:#0000ff;fill-opacity:1"
     d="m 9.000001,-19.032482 h 12 v 11.9999997 h -12 z"
     id="normal-center" />
  <path
     id="normal-top"
     d="m 9,-23.032482 h 12.000001 v 4 H 9 Z"
     style="fill:#0000ff;stroke-width:0.57735032;fill-opacity:1"
     inkscape:connector-curvature="0" />
  <path
     inkscape:connector-curvature="0"
     style="fill:#0000ff;stroke-width:0.57735032;fill-opacity:1"
     d="m 9.000001,-7.0324823 h 12 v 4 h -12 z"
     id="normal-bottom" />
  <path
     id="normal-right"
     d="m 25.000001,-19.032482 v 11.9999997 h -4 V -19.032482 Z"
     style="fill:#0000ff;stroke-width:0.57735032;fill-opacity:1"
     inkscape:connector-curvature="0" />
  <path
     inkscape:connector-curvature="0"
     style="fill:#0000ff;stroke-width:0.57735032;fill-opacity:1"
     d="M 9,-19.032482 V -7.0324823 H 5 V -19.032482 Z"
     id="normal-left" />
  <path
     id="normal-topleft"
     d="m 9,-23.032482 v 4 H 5 v -4 z"
     style="fill:#0000ff;stroke-width:0.33333334;fill-opacity:1"
     inkscape:connector-curvature="0" />
  <path
     inkscape:connector-curvature="0"
     style="fill:#0000ff;stroke-width:0.33333334;fill-opacity:1"
     d="m 25.000001,-23.032482 v 4 h -4 v -4 z"
     id="normal-topright" />
  <path
     id="normal-bottomright"
     d="m 25.000001,-7.0324823 v 4 h -4 v -4 z"
     style="fill:#0000ff;stroke-width:0.33333334;fill-opacity:1"
     inkscape:connector-curvature="0" />
  <path
     inkscape:connector-curvature="0"
     style="fill:#0000ff;stroke-width:0.33333334;fill-opacity:1"
     d="m 9,-7.0324823 v 4 H 5 v -4 z"
     id="normal-bottomleft" />
  <path
     id="selected-center"
     d="M -21.101299,9.0000003 H -9.1012992 V 21 H -21.101299 Z"
     style="fill:#151515;fill-opacity:0.86877829"
     inkscape:connector-curvature="0" />
  <path
     inkscape:connector-curvature="0"
     style="fill:#151515;stroke-width:0.57735032;fill-opacity:0.86877829"
     d="m -21.1013,5.0000003 h 12.0000008 v 4 H -21.1013 Z"
     id="selected-top" />
  <path
     id="selected-bottom"
     d="m -21.101299,21 h 11.9999998 v 4 H -21.101299 Z"
     style="fill:#151515;stroke-width:0.57735032;fill-opacity:0.86877829"
     inkscape:connector-curvature="0" />
  <path
     inkscape:connector-curvature="0"
     style="fill:#151515;stroke-width:0.57735032;fill-opacity:0.86877829"
     d="M -5.1012992,9.0000003 V 21 h -4 V 9.0000003 Z"
     id="selected-right" />
  <path
     id="selected-left"
     d="M -21.1013,9.0000003 V 21 h -4 V 9.0000003 Z"
     style="fill:#151515;stroke-width:0.57735032;fill-opacity:0.86877829"
     inkscape:connector-curvature="0" />
  <path
     inkscape:connector-curvature="0"
     style="fill:#151515;stroke-width:0.33333334;fill-opacity:0.86877829"
     d="m -21.1013,5.0000003 v 4 h -4 v -4 z"
     id="selected-topleft" />
  <path
     id="selected-topright"
     d="m -5.1012992,5.0000003 v 4 h -4 v -4 z"
     style="fill:#151515;stroke-width:0.33333334;fill-opacity:0.86877829"
     inkscape:connector-curvature="0" />
  <path
     inkscape:connector-curvature="0"
     style="fill:#151515;stroke-width:0.33333334;fill-opacity:0.86877829"
     d="m -5.1012992,21 v 4 h -4 v -4 z"
     id="selected-bottomright" />
  <path
     id="selected-bottomleft"
     d="m -21.1013,21 v 4 h -4 v -4 z"
     style="fill:#151515;stroke-width:0.33333334;fill-opacity:0.86877829"
     inkscape:connector-curvature="0" />
  <path
     class="ColorScheme-Highlight"
     id="hover-left"
     d="M 9,9 V 21 H 5 V 9 Z"
     style="opacity:0.75;fill:currentColor;fill-opacity:1;stroke-width:0.57735032"
     inkscape:connector-curvature="0" />
  <path
     class="ColorScheme-Highlight"
     id="hover-bottom"
     d="M 21,25 H 9 v -4 h 12 z"
     style="opacity:0.75;fill:currentColor;fill-opacity:1;stroke-width:0.57735032"
     inkscape:connector-curvature="0" />
  <path
     inkscape:connector-curvature="0"
     style="opacity:0.75;fill:currentColor;fill-opacity:1;stroke-width:0.57735032"
     d="m 21.000001,9 h -12 V 5 h 12 z"
     id="hover-top"
     class="ColorScheme-Highlight" />
  <path
     class="ColorScheme-Highlight"
     id="hover-bottomright"
     d="m 25,21 v 4 h -4 v -4 z"
     style="opacity:0.75;fill:currentColor;fill-opacity:1;stroke-width:0.57735032"
     inkscape:connector-curvature="0" />
  <path
     inkscape:connector-curvature="0"
     style="opacity:0.75;fill:currentColor;fill-opacity:1;stroke-width:0.57735032"
     d="m 9,21 v 4 H 5 v -4 z"
     id="hover-bottomleft"
     class="ColorScheme-Highlight" />
  <path
     class="ColorScheme-Highlight"
     id="hover-topleft"
     d="m 9.000001,5 v 4 h -4 V 5 Z"
     style="opacity:0.75;fill:currentColor;fill-opacity:1;stroke-width:0.57735032"
     inkscape:connector-curvature="0" />
  <path
     inkscape:connector-curvature="0"
     style="opacity:0.75;fill:currentColor;fill-opacity:1;stroke-width:0.57735032"
     d="m 25.000001,5 v 4 h -4 V 5 Z"
     id="hover-topright"
     class="ColorScheme-Highlight" />
</svg>
