<?xml version="1.0" encoding="UTF-8" standalone="no"?>
<!-- Created with Inkscape (http://www.inkscape.org/) -->

<svg
   xmlns:osb="http://www.openswatchbook.org/uri/2009/osb"
   xmlns:dc="http://purl.org/dc/elements/1.1/"
   xmlns:cc="http://creativecommons.org/ns#"
   xmlns:rdf="http://www.w3.org/1999/02/22-rdf-syntax-ns#"
   xmlns:svg="http://www.w3.org/2000/svg"
   xmlns="http://www.w3.org/2000/svg"
   xmlns:sodipodi="http://sodipodi.sourceforge.net/DTD/sodipodi-0.dtd"
   xmlns:inkscape="http://www.inkscape.org/namespaces/inkscape"
   id="svg2"
   viewBox="0 0 50.168457 44.769444"
   version="1.1"
   width="50.168457"
   height="44.769444"
   inkscape:version="0.92.4 5da689c313, 2019-01-14"
   sodipodi:docname="lineedit.svg">
  <sodipodi:namedview
     pagecolor="#ffffff"
     bordercolor="#666666"
     borderopacity="1"
     objecttolerance="10"
     gridtolerance="10"
     guidetolerance="10"
     inkscape:pageopacity="0"
     inkscape:pageshadow="2"
     inkscape:window-width="1416"
     inkscape:window-height="845"
     id="namedview75"
     showgrid="false"
     inkscape:pagecheckerboard="true"
     inkscape:zoom="21.797832"
     inkscape:cx="-8.4316934"
     inkscape:cy="29.160413"
     inkscape:current-layer="svg2"
     inkscape:window-x="20"
     inkscape:window-y="133"
     inkscape:window-maximized="0"
     inkscape:showpageshadow="false"
     fit-margin-top="5"
     fit-margin-left="5"
     fit-margin-right="5"
     fit-margin-bottom="5" />
  <defs
     id="defs4">
    <linearGradient
       osb:paint="solid"
       id="focus">
      <stop
         id="stop1033"
         offset="0"
         style="stop-color:#7b7b7b;stop-opacity:1;" />
    </linearGradient>
    <linearGradient
       osb:paint="solid"
       id="base">
      <stop
         style="stop-color:#404040;stop-opacity:0.34117648;"
         offset="0"
         id="stop4793" />
    </linearGradient>
  </defs>
  <style
     id="current-color-scheme"
     type="text/css">
      .ColorScheme-Text {
      }
      .ColorScheme-Background{
      }
      .ColorScheme-Highlight{
      }
      .ColorScheme-ViewText {
      }
      .ColorScheme-ViewBackground{
      }
      .ColorScheme-ViewHover {
      }
      .ColorScheme-ViewFocus{
      }
      .ColorScheme-ButtonText {
      }
      .ColorScheme-ButtonBackground{
      }
      .ColorScheme-ButtonHover {
      }
      .ColorScheme-ButtonFocus{
      }
  </style>
  <metadata
     id="metadata7">
    <rdf:RDF>
      <cc:Work
         rdf:about="">
        <dc:format>image/svg+xml</dc:format>
        <dc:type
           rdf:resource="http://purl.org/dc/dcmitype/StillImage" />
        <dc:title />
      </cc:Work>
    </rdf:RDF>
  </metadata>
  <path
     id="base-center"
     d="M 3.0000004,3 H 15 V 15 H 3.0000004 Z"
     style="opacity:1;fill:#f0f0f0;fill-opacity:1"
     inkscape:connector-curvature="0" />
  <path
     id="base-bottom"
     d="M 3.0000004,15 H 15 v 1 H 3.0000004 Z"
     style="opacity:1;fill:#f0f0f0;fill-opacity:1;stroke-width:0.50000006"
     inkscape:connector-curvature="0" />
  <path
     inkscape:connector-curvature="0"
     style="opacity:1;fill:#f0f0f0;fill-opacity:1;stroke-width:0.50000006"
     d="M 16,2.9999998 V 15 H 15 V 2.9999998 Z"
     id="base-right" />
  <path
     id="base-left"
     d="M 3.0000004,2.9999998 V 15 h -1 V 2.9999998 Z"
     style="opacity:1;fill:#f0f0f0;fill-opacity:1;stroke-width:0.50000006"
     inkscape:connector-curvature="0" />
  <path
     inkscape:connector-curvature="0"
     style="opacity:1;fill:#f0f0f0;fill-opacity:1;stroke-width:0.28867513"
     d="m 3.0000004,2 v 0.9999999 h -1 V 2 Z"
     id="base-topleft" />
  <path
     id="base-topright"
     d="M 16,2 V 3 H 15 V 2 Z"
     style="opacity:1;fill:#f0f0f0;fill-opacity:1;stroke-width:0.28867513"
     inkscape:connector-curvature="0" />
  <path
     inkscape:connector-curvature="0"
     style="opacity:1;fill:#f0f0f0;fill-opacity:1;stroke-width:0.25"
     d="m 16,15 v 1 h -1 v -1 z"
     id="base-bottomright" />
  <path
     id="base-bottomleft"
     d="m 3.0000004,15 v 1 h -1 v -1 z"
     style="opacity:1;fill:#f0f0f0;fill-opacity:1;stroke-width:0.25"
     inkscape:connector-curvature="0" />
  <rect
     y="1.8194442"
     x="38.58083"
     height="6"
     width="1"
     id="base-hint-bottom-margin"
     style="opacity:1;fill:#000080;fill-opacity:1;fill-rule:evenodd;stroke:none;stroke-width:0.06571944;stroke-linecap:butt;stroke-linejoin:round;stroke-miterlimit:4;stroke-dasharray:none;stroke-dashoffset:0;stroke-opacity:1;paint-order:normal" />
  <rect
     style="opacity:1;fill:#000080;fill-opacity:1;fill-rule:evenodd;stroke:none;stroke-width:0.06571944;stroke-linecap:butt;stroke-linejoin:round;stroke-miterlimit:4;stroke-dasharray:none;stroke-dashoffset:0;stroke-opacity:1;paint-order:normal"
     id="base-hint-top-margin"
     width="1"
     height="6"
     x="35.272018"
     y="1.8194442" />
  <rect
     y="14.174409"
     x="29.272018"
     height="1"
     width="6"
     id="base-hint-right-margin"
     style="opacity:1;fill:#000080;fill-opacity:1;fill-rule:evenodd;stroke:none;stroke-width:0.06571944;stroke-linecap:butt;stroke-linejoin:round;stroke-miterlimit:4;stroke-dasharray:none;stroke-dashoffset:0;stroke-opacity:1;paint-order:normal" />
  <rect
     style="opacity:1;fill:#000080;fill-opacity:1;fill-rule:evenodd;stroke:none;stroke-width:0.06571944;stroke-linecap:butt;stroke-linejoin:round;stroke-miterlimit:4;stroke-dasharray:none;stroke-dashoffset:0;stroke-opacity:1;paint-order:normal"
     id="base-hint-left-margin"
     width="6"
     height="1"
     x="29.272018"
     y="11.319749" />
  <path
     inkscape:connector-curvature="0"
     style="fill:none;fill-opacity:0.99607843"
     d="m 34.484485,25.314303 h 11.999999 v 12 H 34.484485 Z"
     id="hover-center" />
  <g
     id="hover-top"
     transform="translate(28.100758,-0.18061064)"
     style="fill:none">
    <path
       inkscape:connector-curvature="0"
       style="fill:none;fill-opacity:1;stroke-width:0.28867516"
       d="M 6.3837258,24.494914 H 18.383726 v 1 H 6.3837258 Z"
       id="path898"
       class="ColorScheme-ButtonHover" />
    <path
       id="path900"
       d="M 6.3837258,23.494914 H 18.383726 v 1 H 6.3837258 Z"
       style="fill:none;fill-opacity:1;stroke-width:0.28867516"
       inkscape:connector-curvature="0" />
  </g>
  <g
     transform="translate(22.638781,0.40414716)"
     id="hover-topright"
     style="fill:none">
    <path
       inkscape:connector-curvature="0"
       style="fill:none;fill-opacity:1;stroke-width:0.16666667"
       d="m 23.845703,22.910156 v 1 h 1 v 1 h 1 v -2 z"
       id="path904" />
    <path
       inkscape:connector-curvature="0"
       style="fill:none;fill-opacity:1;stroke-width:0.08333334"
       d="m 24.845703,23.910156 v 1 h -1 v -1 z"
       id="path906"
       class="ColorScheme-ButtonHover" />
  </g>
  <g
     transform="matrix(1,0,0,-1,28.100759,62.809217)"
     id="hover-bottom"
     style="fill:none">
    <path
       class="ColorScheme-ButtonHover"
       id="path910"
       d="M 6.3837258,24.494914 H 18.383726 v 1 H 6.3837258 Z"
       style="fill:none;fill-opacity:1;stroke-width:0.28867516"
       inkscape:connector-curvature="0" />
    <path
       inkscape:connector-curvature="0"
       style="fill:none;fill-opacity:1;stroke-width:0.28867516"
       d="M 6.3837258,23.494914 H 18.383726 v 1 H 6.3837258 Z"
       id="path912" />
  </g>
  <g
     transform="rotate(90,26.52441,45.454988)"
     id="hover-right"
     style="fill:none">
    <path
       class="ColorScheme-ButtonHover"
       id="path916"
       d="M 6.3837258,24.494914 H 18.383726 v 1 H 6.3837258 Z"
       style="fill:none;fill-opacity:1;stroke-width:0.28867516"
       inkscape:connector-curvature="0" />
    <path
       inkscape:connector-curvature="0"
       style="fill:none;fill-opacity:1;stroke-width:0.28867516"
       d="M 6.3837258,23.494914 H 18.383726 v 1 H 6.3837258 Z"
       id="path918" />
  </g>
  <g
     transform="rotate(-90,26.3438,17.35423)"
     id="hover-left"
     style="fill:none">
    <path
       class="ColorScheme-ButtonHover"
       id="path922"
       d="M 6.3837258,24.494914 H 18.383726 v 1 H 6.3837258 Z"
       style="fill:none;fill-opacity:1;stroke-width:0.28867516"
       inkscape:connector-curvature="0" />
    <path
       inkscape:connector-curvature="0"
       style="fill:none;fill-opacity:1;stroke-width:0.28867516"
       d="M 6.3837258,23.494914 H 18.383726 v 1 H 6.3837258 Z"
       id="path924" />
  </g>
  <g
     id="hover-bottomright"
     transform="matrix(1,0,0,-1,22.638782,62.224459)"
     style="fill:none">
    <path
       id="path928"
       d="m 23.845703,22.910156 v 1 h 1 v 1 h 1 v -2 z"
       style="fill:none;fill-opacity:1;stroke-width:0.16666667"
       inkscape:connector-curvature="0" />
    <path
       class="ColorScheme-ButtonHover"
       id="path930"
       d="m 24.845703,23.910156 v 1 h -1 v -1 z"
       style="fill:none;fill-opacity:1;stroke-width:0.08333334"
       inkscape:connector-curvature="0" />
  </g>
  <g
     id="hover-bottomleft"
     transform="rotate(-180,29.165094,31.11223)"
     style="fill:none">
    <path
       id="path934"
       d="m 23.845703,22.910156 v 1 h 1 v 1 h 1 v -2 z"
       style="fill:none;fill-opacity:1;stroke-width:0.16666667"
       inkscape:connector-curvature="0" />
    <path
       class="ColorScheme-ButtonHover"
       id="path936"
       d="m 24.845703,23.910156 v 1 h -1 v -1 z"
       style="fill:none;fill-opacity:1;stroke-width:0.08333334"
       inkscape:connector-curvature="0" />
  </g>
  <g
     id="hover-topleft"
     transform="matrix(-1,0,0,1,58.330187,0.40414736)"
     style="fill:none">
    <path
       id="path940"
       d="m 23.845703,22.910156 v 1 h 1 v 1 h 1 v -2 z"
       style="fill:none;fill-opacity:1;stroke-width:0.16666667"
       inkscape:connector-curvature="0" />
    <path
       class="ColorScheme-ButtonHover"
       id="path942"
       d="m 24.845703,23.910156 v 1 h -1 v -1 z"
       style="fill:none;fill-opacity:1;stroke-width:0.08333334"
       inkscape:connector-curvature="0" />
  </g>
  <path
     id="focus-center"
     d="m -25.04548,2.540238 h 11.999999 v 12 H -25.04548 Z"
     style="opacity:1;fill:#fafafa;fill-opacity:1"
     inkscape:connector-curvature="0" />
  <path
     id="base-top"
     d="M 2.9999992,2 H 15 V 2.9999999 H 2.9999992 Z"
     style="opacity:1;fill:#f0f0f0;fill-opacity:1;stroke-width:0.57735032"
     inkscape:connector-curvature="0" />
  <g
     id="focus-bottom"
     transform="translate(0,-7.698081)">
    <path
       inkscape:connector-curvature="0"
       style="opacity:0.6;fill:none;stroke-width:0.57735026"
       d="m -25.045481,22.238319 h 12 v 3.999999 h -12 z"
       id="path909" />
    <path
       inkscape:connector-curvature="0"
       style="opacity:1;fill:#f19c3b;fill-opacity:1;stroke-width:0.28867516"
       d="m -25.045481,22.238319 h 12 v 0.999999 h -12 z"
       id="path911"
       class="ColorScheme-ButtonHover" />
  </g>
  <g
     id="focus-topright"
     transform="translate(-4.4766247,1.5246479)"
     style="fill:#ff0000">
    <path
       inkscape:connector-curvature="0"
       style="opacity:0.1;fill:none;stroke-width:0.33333334"
       d="m -4.5688548,-2.9844099 v 4 h -4.0000005 v -4 z"
       id="path1106" />
    <path
       id="path931"
       d="m -7.5688553,0.0155901 v 1 h -1 v -1 z"
       style="opacity:1;fill:#f19c3b;fill-opacity:1;stroke-width:0.08333333"
       inkscape:connector-curvature="0"
       class="ColorScheme-ButtonHover" />
  </g>
  <g
     transform="matrix(1,0,0,-1,3e-7,24.778556)"
     id="focus-top">
    <path
       id="path938"
       d="m -25.045481,22.238319 h 12 v 3.999999 h -12 z"
       style="opacity:0.6;fill:none;stroke-width:0.57735026"
       inkscape:connector-curvature="0" />
    <path
       class="ColorScheme-ButtonHover"
       id="path943"
       d="m -25.045481,22.238319 h 12 v 0.999999 h -12 z"
       style="opacity:1;fill:#f19c3b;fill-opacity:1;stroke-width:0.28867516"
       inkscape:connector-curvature="0" />
  </g>
  <g
     transform="rotate(-90,-22.894521,12.389278)"
     id="focus-right">
    <path
       id="path948"
       d="m -25.045481,22.238319 h 12 v 3.999999 h -12 z"
       style="opacity:0.6;fill:none;stroke-width:0.57735026"
       inkscape:connector-curvature="0" />
    <path
       class="ColorScheme-ButtonHover"
       id="path950"
       d="m -25.045481,22.238319 h 12 v 0.999999 h -12 z"
       style="opacity:1;fill:#f19c3b;fill-opacity:1;stroke-width:0.28867516"
       inkscape:connector-curvature="0" />
  </g>
  <g
     id="focus-left"
     transform="matrix(0,-1,-1,0,-2.807162,-10.505243)">
    <path
       inkscape:connector-curvature="0"
       style="opacity:0.6;fill:none;stroke-width:0.57735026"
       d="m -25.045481,22.238319 h 12 v 3.999999 h -12 z"
       id="path954" />
    <path
       inkscape:connector-curvature="0"
       style="opacity:1;fill:#f19c3b;fill-opacity:1;stroke-width:0.28867516"
       d="m -25.045481,22.238319 h 12 v 0.999999 h -12 z"
       id="path956"
       class="ColorScheme-ButtonHover" />
  </g>
  <rect
     width="2.0329318"
     height="2.077126"
     rx="0"
     ry="2.077126"
     x="20.004211"
     y="-9.6642351"
     id="hint-focus-over-base"
     style="opacity:0.98999999;fill:#4e9a06;fill-opacity:1;fill-rule:nonzero;stroke:none" />
  <g
     style="fill:#ff0000"
     transform="matrix(-1,0,0,1,-33.614335,1.5246479)"
     id="focus-topleft">
    <path
       id="path1807"
       d="m -4.5688548,-2.9844099 v 4 h -4.0000005 v -4 z"
       style="opacity:0.1;fill:none;stroke-width:0.33333334"
       inkscape:connector-curvature="0" />
    <path
       class="ColorScheme-ButtonHover"
       inkscape:connector-curvature="0"
       style="opacity:1;fill:#f19c3b;fill-opacity:1;stroke-width:0.08333333"
       d="m -7.5688553,0.0155901 v 1 h -1 v -1 z"
       id="path1809" />
  </g>
  <g
     style="fill:#ff0000"
     transform="matrix(1,0,0,-1,-4.4766257,15.555827)"
     id="focus-bottomright">
    <path
       id="path1813"
       d="m -4.5688548,-2.9844099 v 4 h -4.0000005 v -4 z"
       style="opacity:0.1;fill:none;stroke-width:0.33333334"
       inkscape:connector-curvature="0" />
    <path
       class="ColorScheme-ButtonHover"
       inkscape:connector-curvature="0"
       style="opacity:1;fill:#f19c3b;fill-opacity:1;stroke-width:0.08333333"
       d="m -7.5688553,0.0155901 v 1 h -1 v -1 z"
       id="path1815" />
  </g>
  <g
     style="fill:#ff0000"
     transform="rotate(-180,-16.807168,7.7779135)"
     id="focus-bottomleft">
    <path
       id="path1819"
       d="m -4.5688548,-2.9844099 v 4 h -4.0000005 v -4 z"
       style="opacity:0.1;fill:none;stroke-width:0.33333334"
       inkscape:connector-curvature="0" />
    <path
       class="ColorScheme-ButtonHover"
       inkscape:connector-curvature="0"
       style="opacity:1;fill:#f19c3b;fill-opacity:1;stroke-width:0.08333333"
       d="m -7.5688553,0.0155901 v 1 h -1 v -1 z"
       id="path1821" />
  </g>
</svg>
