<?xml version="1.0" encoding="UTF-8" standalone="no"?>
<!-- Created with Inkscape (http://www.inkscape.org/) -->

<svg
   xmlns:osb="http://www.openswatchbook.org/uri/2009/osb"
   xmlns:dc="http://purl.org/dc/elements/1.1/"
   xmlns:cc="http://creativecommons.org/ns#"
   xmlns:rdf="http://www.w3.org/1999/02/22-rdf-syntax-ns#"
   xmlns:svg="http://www.w3.org/2000/svg"
   xmlns="http://www.w3.org/2000/svg"
   xmlns:xlink="http://www.w3.org/1999/xlink"
   xmlns:sodipodi="http://sodipodi.sourceforge.net/DTD/sodipodi-0.dtd"
   xmlns:inkscape="http://www.inkscape.org/namespaces/inkscape"
   sodipodi:docname="background.svg"
   inkscape:version="0.92.4 5da689c313, 2019-01-14"
   width="199.63441"
   height="74"
   version="1.0"
   viewBox="0 0 199.63442 74"
   id="svg3642">
  <sodipodi:namedview
     inkscape:current-layer="svg3642"
     inkscape:cy="24.481967"
     inkscape:cx="100.80127"
     inkscape:zoom="6.338512"
     showgrid="false"
     id="namedview36"
     inkscape:window-height="898"
     inkscape:window-width="1551"
     inkscape:pageshadow="2"
     inkscape:pageopacity="0"
     guidetolerance="10"
     gridtolerance="10"
     objecttolerance="10"
     borderopacity="1"
     bordercolor="#666666"
     pagecolor="#ffffff"
     inkscape:window-x="0"
     inkscape:window-y="0"
     inkscape:window-maximized="0"
     inkscape:pagecheckerboard="true"
     inkscape:showpageshadow="false"
     fit-margin-top="5"
     fit-margin-left="5"
     fit-margin-right="5"
     fit-margin-bottom="5" />
  <defs
     id="defs3644">
    <linearGradient
       inkscape:collect="always"
       id="linearGradient1615">
      <stop
         style="stop-color:#000000;stop-opacity:0.13145539"
         offset="0"
         id="stop1611" />
      <stop
         style="stop-color:#000000;stop-opacity:0;"
         offset="1"
         id="stop1613" />
    </linearGradient>
    <linearGradient
       osb:paint="solid"
       id="border">
      <stop
         id="stop852"
         offset="0"
         style="stop-color:#101724;stop-opacity:0;" />
    </linearGradient>
    <linearGradient
       inkscape:collect="always"
       xlink:href="#linearGradient1615"
       id="linearGradient1617"
       x1="140.27742"
       y1="-3.2033491"
       x2="140.27742"
       y2="-17.203348"
       gradientUnits="userSpaceOnUse"
       gradientTransform="translate(42.356982,16.203353)" />
    <linearGradient
       inkscape:collect="always"
       xlink:href="#linearGradient1615"
       id="linearGradient1621"
       gradientUnits="userSpaceOnUse"
       gradientTransform="translate(42.356989,-57.796655)"
       x1="140.27742"
       y1="-3.2033491"
       x2="140.27742"
       y2="-17.203348" />
    <linearGradient
       inkscape:collect="always"
       xlink:href="#linearGradient1615"
       id="linearGradient1625"
       gradientUnits="userSpaceOnUse"
       gradientTransform="translate(-127.27741,-227.43107)"
       x1="140.27742"
       y1="-3.2033491"
       x2="140.27742"
       y2="-17.203348" />
    <linearGradient
       inkscape:collect="always"
       xlink:href="#linearGradient1615"
       id="linearGradient1629"
       gradientUnits="userSpaceOnUse"
       gradientTransform="translate(-201.27742,185.83775)"
       x1="140.27742"
       y1="-3.2033491"
       x2="140.27742"
       y2="-17.203348" />
    <radialGradient
       inkscape:collect="always"
       xlink:href="#linearGradient1615"
       id="radialGradient1639"
       cx="150.6344"
       cy="61.000004"
       fx="150.6344"
       fy="61.000004"
       r="7"
       gradientUnits="userSpaceOnUse"
       gradientTransform="matrix(-1.9999983,-1.1226937e-6,1.1226948e-6,-2.0000002,483.90288,183.00019)" />
    <radialGradient
       inkscape:collect="always"
       xlink:href="#linearGradient1615"
       id="radialGradient1643"
       gradientUnits="userSpaceOnUse"
       gradientTransform="matrix(-1.9999983,-1.1226937e-6,1.1226948e-6,-2.0000002,70.63407,183.00019)"
       cx="150.6344"
       cy="61.000004"
       fx="150.6344"
       fy="61.000004"
       r="7" />
    <radialGradient
       inkscape:collect="always"
       xlink:href="#linearGradient1615"
       id="radialGradient1647"
       gradientUnits="userSpaceOnUse"
       gradientTransform="matrix(-1.9999983,-1.1226937e-6,1.1226948e-6,-2.0000002,483.90288,109.00018)"
       cx="150.6344"
       cy="61.000004"
       fx="150.6344"
       fy="61.000004"
       r="7" />
    <radialGradient
       inkscape:collect="always"
       xlink:href="#linearGradient1615"
       id="radialGradient1651"
       gradientUnits="userSpaceOnUse"
       gradientTransform="matrix(-1.9999983,-1.1226937e-6,1.1226948e-6,-2.0000002,70.63407,109.00018)"
       cx="150.6344"
       cy="61.000004"
       fx="150.6344"
       fy="61.000004"
       r="7" />
  </defs>
  <style
     id="current-color-scheme"
     type="text/css">
      .ColorScheme-Text {
      }
      .ColorScheme-Background{
      }
      .ColorScheme-Highlight{
      }
      .ColorScheme-ViewText {
      }
      .ColorScheme-ViewBackground{
      }
      .ColorScheme-ViewHover {
      }
      .ColorScheme-ViewFocus{
      }
      .ColorScheme-ButtonText {
      }
      .ColorScheme-ButtonBackground{
      }
      .ColorScheme-ButtonHover {
      }
      .ColorScheme-ButtonFocus{
      }
  </style>
  <metadata
     id="metadata3647">
    <rdf:RDF>
      <cc:Work
         rdf:about="">
        <dc:format>image/svg+xml</dc:format>
        <dc:type
           rdf:resource="http://purl.org/dc/dcmitype/StillImage" />
        <dc:title />
      </cc:Work>
      <cc:Work
         rdf:about="">
        <dc:format>image/svg+xml</dc:format>
        <dc:type
           rdf:resource="http://purl.org/dc/dcmitype/StillImage" />
      </cc:Work>
      <cc:Work
         rdf:about="">
        <dc:format>image/svg+xml</dc:format>
        <dc:type
           rdf:resource="http://purl.org/dc/dcmitype/StillImage" />
      </cc:Work>
    </rdf:RDF>
  </metadata>
  <rect
     transform="rotate(90)"
     class="ColorScheme-ViewBackground"
     id="right"
     height="1"
     x="13.421065"
     y="-114.9311"
     width="48"
     style="opacity:1;fill:#ffffff;fill-opacity:1;stroke-width:0.13856407" />
  <rect
     style="opacity:1;fill:#ffffff;fill-opacity:1;stroke-width:0.13856407"
     width="48"
     y="-65.931099"
     x="13.421069"
     height="1"
     id="left"
     class="ColorScheme-ViewBackground"
     transform="rotate(90)" />
  <rect
     style="opacity:1;fill:#ffffff;fill-opacity:1;stroke-width:0.13856407"
     width="48"
     y="61.42107"
     x="65.931099"
     height="1"
     id="bottom"
     class="ColorScheme-ViewBackground" />
  <rect
     class="ColorScheme-ViewBackground"
     id="top"
     height="1"
     x="65.931099"
     y="12.421065"
     width="48"
     style="opacity:1;fill:#ffffff;fill-opacity:1;stroke-width:0.13856407" />
  <rect
     style="opacity:0.97;fill:#ffffff;fill-opacity:1;stroke-width:0.95999998"
     width="48"
     y="13.421065"
     x="65.931099"
     height="48"
     id="center"
     class="ColorScheme-ViewBackground" />
  <rect
     style="fill:#666666;fill-opacity:1;stroke-width:0.95999998"
     width="48"
     y="10.510574"
     x="-29.339525"
     height="48"
     id="mask-center" />
  <rect
     id="mask-bottom"
     height="1"
     x="-29.339525"
     y="58.510582"
     width="48"
     style="fill:#666666;fill-opacity:1;stroke-width:0.13856407" />
  <rect
     style="fill:#666666;fill-opacity:1;stroke-width:0.13856407"
     width="48"
     y="9.5105743"
     x="-29.339525"
     height="1"
     id="mask-top" />
  <rect
     transform="rotate(90)"
     id="mask-right"
     height="1"
     x="10.510578"
     y="-19.660475"
     width="48"
     style="fill:#666666;fill-opacity:1;stroke-width:0.13856407" />
  <rect
     style="fill:#666666;fill-opacity:1;stroke-width:0.13856407"
     width="48"
     y="29.339525"
     x="10.510578"
     height="1"
     id="mask-left"
     transform="rotate(90)" />
  <rect
     style="fill:#666666;fill-opacity:1;stroke-width:0.02"
     width="1"
     y="-19.660475"
     x="58.510582"
     height="1"
     id="mask-bottomright"
     transform="rotate(90)" />
  <rect
     transform="rotate(90)"
     id="mask-topright"
     height="1"
     x="9.5105743"
     y="-19.660475"
     width="1"
     style="fill:#666666;fill-opacity:1;stroke-width:0.02" />
  <rect
     transform="rotate(90)"
     id="mask-bottomleft"
     height="1"
     x="58.510582"
     y="29.339525"
     width="1"
     style="fill:#666666;fill-opacity:1;stroke-width:0.02" />
  <rect
     transform="rotate(90)"
     id="mask-topleft"
     height="1"
     x="9.5105743"
     y="29.339525"
     width="1"
     style="fill:#666666;fill-opacity:1;stroke-width:0.02" />
  <rect
     id="shadow-center"
     height="48"
     x="182.63441"
     y="13.000003"
     width="48"
     style="opacity:1;fill:#008080;fill-opacity:1;stroke-width:0.95999998" />
  <rect
     id="shadow-top"
     height="13.999999"
     x="182.6344"
     y="-0.99999529"
     width="48"
     style="fill:url(#linearGradient1617);fill-opacity:1;stroke-width:0.95999986" />
  <rect
     y="5.1868677"
     x="66.049423"
     height="5"
     width="1"
     id="hint-top-margin"
     style="opacity:0.8;fill:#008080;fill-opacity:1;fill-rule:evenodd;stroke:none;stroke-width:10;stroke-linecap:square;stroke-linejoin:miter;stroke-miterlimit:4;stroke-dasharray:none;stroke-opacity:0.99099097;paint-order:normal" />
  <rect
     style="opacity:0.8;fill:#008080;fill-opacity:1;fill-rule:evenodd;stroke:none;stroke-width:10;stroke-linecap:square;stroke-linejoin:miter;stroke-miterlimit:4;stroke-dasharray:none;stroke-opacity:0.99099097;paint-order:normal"
     id="hint-bottom-margin"
     width="1"
     height="5"
     x="113.20999"
     y="62.998928" />
  <rect
     y="13.755741"
     x="118.00294"
     height="1"
     width="5"
     id="hint-right-margin"
     style="opacity:0.8;fill:#008080;fill-opacity:1;fill-rule:evenodd;stroke:none;stroke-width:10;stroke-linecap:square;stroke-linejoin:miter;stroke-miterlimit:4;stroke-dasharray:none;stroke-opacity:0.99099097;paint-order:normal" />
  <rect
     y="60.736603"
     x="51.154343"
     height="1"
     width="5"
     id="hint-left-margin"
     style="opacity:0.8;fill:#008080;fill-opacity:1;fill-rule:evenodd;stroke:none;stroke-width:10;stroke-linecap:square;stroke-linejoin:miter;stroke-miterlimit:4;stroke-dasharray:none;stroke-opacity:0.99099097;paint-order:normal" />
  <rect
     y="-0.99999714"
     x="182.63441"
     height="14"
     width="1"
     id="shadow-hint-top-margin"
     style="opacity:1;fill:#008080;fill-opacity:1;fill-rule:evenodd;stroke:none;stroke-width:10;stroke-linecap:square;stroke-linejoin:miter;stroke-miterlimit:4;stroke-dasharray:none;stroke-opacity:0.99099097;paint-order:normal" />
  <rect
     style="opacity:1;fill:#008080;fill-opacity:1;fill-rule:evenodd;stroke:none;stroke-width:10;stroke-linecap:square;stroke-linejoin:miter;stroke-miterlimit:4;stroke-dasharray:none;stroke-opacity:0.99099097;paint-order:normal"
     id="shadow-hint-bottom-margin"
     width="1"
     height="14"
     x="229.6344"
     y="61" />
  <rect
     style="opacity:1;fill:#008080;fill-opacity:1;fill-rule:evenodd;stroke:none;stroke-width:10;stroke-linecap:square;stroke-linejoin:miter;stroke-miterlimit:4;stroke-dasharray:none;stroke-opacity:0.99099097;paint-order:normal"
     id="shadow-hint-right-margin"
     width="14"
     height="1"
     x="230.63441"
     y="13.000004" />
  <rect
     y="60.000004"
     x="168.63441"
     height="1"
     width="14"
     id="shadow-hint-left-margin"
     style="opacity:1;fill:#008080;fill-opacity:1;fill-rule:evenodd;stroke:none;stroke-width:10;stroke-linecap:square;stroke-linejoin:miter;stroke-miterlimit:4;stroke-dasharray:none;stroke-opacity:0.99099097;paint-order:normal" />
  <rect
     style="opacity:1;fill:#ffffff;fill-opacity:1;stroke-width:0.02"
     width="1"
     y="12.421065"
     x="64.931099"
     height="1"
     id="topleft"
     class="ColorScheme-ViewBackground" />
  <rect
     class="ColorScheme-ViewBackground"
     id="topright"
     height="1"
     x="113.9311"
     y="12.421065"
     width="1"
     style="opacity:1;fill:#ffffff;fill-opacity:1;stroke-width:0.02" />
  <rect
     class="ColorScheme-ViewBackground"
     id="bottomleft"
     height="1"
     x="64.931099"
     y="61.42107"
     width="1"
     style="opacity:1;fill:#ffffff;fill-opacity:1;stroke-width:0.02" />
  <rect
     style="opacity:1;fill:#ffffff;fill-opacity:1;stroke-width:0.02"
     width="1"
     y="61.421066"
     x="113.9311"
     height="1"
     id="bottomright"
     class="ColorScheme-ViewBackground" />
  <rect
     style="fill:url(#linearGradient1621);fill-opacity:1;stroke-width:0.95999986"
     width="48"
     y="-75"
     x="182.6344"
     height="13.999999"
     id="shadow-bottom"
     transform="scale(1,-1)" />
  <rect
     style="fill:url(#linearGradient1625);fill-opacity:1;stroke-width:0.95999986"
     width="48"
     y="-244.63441"
     x="13.000004"
     height="13.999999"
     id="shadow-right"
     transform="rotate(90)" />
  <rect
     style="fill:url(#linearGradient1629);fill-opacity:1;stroke-width:0.95999986"
     width="48"
     y="168.6344"
     x="-61"
     height="13.999999"
     id="shadow-left"
     transform="rotate(-90)" />
  <rect
     style="opacity:1;fill:url(#radialGradient1639);fill-opacity:1;stroke:none;stroke-width:1;stroke-linecap:butt;stroke-miterlimit:4;stroke-dasharray:none;stroke-opacity:1"
     id="shadow-bottomleft"
     width="14"
     height="14"
     x="168.6344"
     y="61" />
  <rect
     y="61.000004"
     x="-244.63441"
     height="14"
     width="14"
     id="shadow-bottomright"
     style="opacity:1;fill:url(#radialGradient1643);fill-opacity:1;stroke:none;stroke-width:1;stroke-linecap:butt;stroke-miterlimit:4;stroke-dasharray:none;stroke-opacity:1"
     transform="scale(-1,1)" />
  <rect
     y="-13.000005"
     x="168.6344"
     height="14"
     width="14"
     id="shadow-topleft"
     style="opacity:1;fill:url(#radialGradient1647);fill-opacity:1;stroke:none;stroke-width:1;stroke-linecap:butt;stroke-miterlimit:4;stroke-dasharray:none;stroke-opacity:1"
     transform="scale(1,-1)" />
  <rect
     y="-13.000004"
     x="-244.63441"
     height="14"
     width="14"
     id="shadow-topright"
     style="opacity:1;fill:url(#radialGradient1651);fill-opacity:1;stroke:none;stroke-width:1;stroke-linecap:butt;stroke-miterlimit:4;stroke-dasharray:none;stroke-opacity:1"
     transform="scale(-1)" />
</svg>
