<?xml version="1.0" encoding="UTF-8" standalone="no"?>
<!-- Created with Inkscape (http://www.inkscape.org/) -->

<svg
   xmlns:osb="http://www.openswatchbook.org/uri/2009/osb"
   xmlns:dc="http://purl.org/dc/elements/1.1/"
   xmlns:cc="http://creativecommons.org/ns#"
   xmlns:rdf="http://www.w3.org/1999/02/22-rdf-syntax-ns#"
   xmlns:svg="http://www.w3.org/2000/svg"
   xmlns="http://www.w3.org/2000/svg"
   xmlns:sodipodi="http://sodipodi.sourceforge.net/DTD/sodipodi-0.dtd"
   xmlns:inkscape="http://www.inkscape.org/namespaces/inkscape"
   width="60.74"
   height="60.74"
   viewBox="0 0 60.74 60.74"
   version="1.1"
   id="svg8"
   inkscape:version="0.92.4 5da689c313, 2019-01-14"
   sodipodi:docname="alldesktops.svg">
  <defs
     id="defs2">
    <style
       id="current-color-scheme"
       type="text/css">
          .ColorScheme-Text {
          }
          .ColorScheme-Background{
          }
          .ColorScheme-Highlight{
          }
          .ColorScheme-ViewText {
          }
          .ColorScheme-ViewBackground{
          }
          .ColorScheme-ViewHover {
          }
          .ColorScheme-ViewFocus{
          }
          .ColorScheme-ButtonText {
          }
          .ColorScheme-ButtonBackground{
          }
          .ColorScheme-ButtonHover {
          }
          .ColorScheme-ButtonFocus{
          }
      </style>
    <linearGradient
       id="linearGradient1509"
       osb:paint="solid">
      <stop
         style="stop-color:#000000;stop-opacity:1;"
         offset="0"
         id="stop1507" />
    </linearGradient>
    <linearGradient
       id="linearGradient1497"
       osb:paint="solid">
      <stop
         style="stop-color:#000000;stop-opacity:1;"
         offset="0"
         id="stop1495" />
    </linearGradient>
    <linearGradient
       id="edge"
       osb:paint="solid">
      <stop
         style="stop-color:#f6fffa;stop-opacity:0.65490198;"
         offset="0"
         id="stop1489" />
    </linearGradient>
    <linearGradient
       id="linearGradient1481"
       osb:paint="solid">
      <stop
         style="stop-color:#000000;stop-opacity:1;"
         offset="0"
         id="stop1479" />
    </linearGradient>
  </defs>
  <sodipodi:namedview
     id="base"
     pagecolor="#ffffff"
     bordercolor="#666666"
     borderopacity="1.0"
     inkscape:pageopacity="0.0"
     inkscape:pageshadow="2"
     inkscape:zoom="7.622611"
     inkscape:cx="-34.562394"
     inkscape:cy="23.495799"
     inkscape:document-units="px"
     inkscape:current-layer="layer1"
     showgrid="false"
     units="px"
     inkscape:pagecheckerboard="true"
     inkscape:showpageshadow="false"
     inkscape:window-width="1156"
     inkscape:window-height="730"
     inkscape:window-x="416"
     inkscape:window-y="336"
     inkscape:window-maximized="0"
     fit-margin-top="5"
     fit-margin-left="5"
     fit-margin-right="5"
     fit-margin-bottom="5"
     showguides="true"
     inkscape:guide-bbox="true" />
  <metadata
     id="metadata5">
    <rdf:RDF>
      <cc:Work
         rdf:about="">
        <dc:format>image/svg+xml</dc:format>
        <dc:type
           rdf:resource="http://purl.org/dc/dcmitype/StillImage" />
        <dc:title />
      </cc:Work>
    </rdf:RDF>
  </metadata>
  <g
     inkscape:label="Layer 1"
     inkscape:groupmode="layer"
     id="layer1"
     transform="translate(0.7812,-288.9)">
    <g
       id="active-center"
       transform="translate(-13.51243,-10.101526)">
      <rect
         style="opacity:1;fill:#1f1f1f;fill-opacity:1;fill-rule:nonzero;stroke:none;stroke-width:0.33731341;stroke-linecap:square;stroke-linejoin:round;stroke-miterlimit:4;stroke-dasharray:none;stroke-dashoffset:0;stroke-opacity:1"
         id="rect872"
         width="40"
         height="28"
         x="-47.150116"
         y="297.59531" />
      <circle
         r="3"
         cy="311.59531"
         cx="-27.150116"
         id="path866"
         style="opacity:1;fill:#bababa;fill-opacity:1;fill-rule:evenodd;stroke:none;stroke-width:1.74960005;stroke-linecap:round;stroke-linejoin:miter;stroke-miterlimit:4;stroke-dasharray:none;stroke-dashoffset:0;stroke-opacity:1;paint-order:normal" />
    </g>
    <g
       id="pressed-center"
       transform="translate(8.2648846,-1.5742637)">
      <rect
         class="ColorScheme-Highlight"
         style="opacity:1;fill:currentColor;fill-opacity:1;fill-rule:nonzero;stroke:none;stroke-width:0.33731341;stroke-linecap:square;stroke-linejoin:round;stroke-miterlimit:4;stroke-dasharray:none;stroke-dashoffset:0;stroke-opacity:1"
         id="rect847"
         width="40"
         height="28"
         x="-9.236598"
         y="325.01373" />
      <g
         transform="translate(-5.7265978,10.513733)"
         id="g911">
        <ellipse
           ry="1.551"
           rx="1.552"
           cy="328.60001"
           cx="16.5"
           id="ellipse1656"
           style="opacity:1;fill:#ffffff;fill-opacity:1;fill-rule:evenodd;stroke:none;stroke-width:1.74940002;stroke-linecap:round;stroke-linejoin:miter;stroke-miterlimit:4;stroke-dasharray:none;stroke-dashoffset:0;stroke-opacity:1;paint-order:normal" />
        <ellipse
           style="opacity:1;fill:none;fill-opacity:0.72939998;fill-rule:evenodd;stroke:#ffffff;stroke-width:1.24960005;stroke-linecap:round;stroke-linejoin:miter;stroke-miterlimit:4;stroke-dasharray:none;stroke-dashoffset:0;stroke-opacity:1;paint-order:normal"
           id="ellipse1672"
           cx="16.49"
           cy="328.5"
           rx="3.5380001"
           ry="3.5369999" />
      </g>
    </g>
    <g
       transform="translate(46.178403,-15.086694)"
       id="inactive-center">
      <rect
         y="297.59531"
         x="-47.150116"
         height="28"
         width="40"
         id="rect835"
         style="opacity:0.5;fill:#1f1f1f;fill-opacity:1;fill-rule:nonzero;stroke:none;stroke-width:0.33731341;stroke-linecap:square;stroke-linejoin:round;stroke-miterlimit:4;stroke-dasharray:none;stroke-dashoffset:0;stroke-opacity:1" />
      <circle
         style="opacity:1;fill:#949494;fill-opacity:1;fill-rule:evenodd;stroke:none;stroke-width:1.74960005;stroke-linecap:round;stroke-linejoin:miter;stroke-miterlimit:4;stroke-dasharray:none;stroke-dashoffset:0;stroke-opacity:1;paint-order:normal"
         id="circle837"
         cx="-27.150116"
         cy="311.59531"
         r="3" />
    </g>
    <g
       transform="translate(-12.462921,26.368917)"
       id="hover-center">
      <rect
         y="297.59531"
         x="-47.150116"
         height="28"
         width="40"
         id="rect841"
         style="opacity:1;fill:#1f1f1f;fill-opacity:1;fill-rule:nonzero;stroke:none;stroke-width:0.33731341;stroke-linecap:square;stroke-linejoin:round;stroke-miterlimit:4;stroke-dasharray:none;stroke-dashoffset:0;stroke-opacity:1" />
      <circle
         style="opacity:1;fill:#ffffff;fill-opacity:1;fill-rule:evenodd;stroke:none;stroke-width:1.74960005;stroke-linecap:round;stroke-linejoin:miter;stroke-miterlimit:4;stroke-dasharray:none;stroke-dashoffset:0;stroke-opacity:1;paint-order:normal"
         id="circle843"
         cx="-27.150116"
         cy="311.59531"
         r="3" />
    </g>
  </g>
</svg>
