<?xml version="1.0" encoding="UTF-8" standalone="no"?>
<!-- Created with Inkscape (http://www.inkscape.org/) -->

<svg
   xmlns:osb="http://www.openswatchbook.org/uri/2009/osb"
   xmlns:dc="http://purl.org/dc/elements/1.1/"
   xmlns:cc="http://creativecommons.org/ns#"
   xmlns:rdf="http://www.w3.org/1999/02/22-rdf-syntax-ns#"
   xmlns:svg="http://www.w3.org/2000/svg"
   xmlns="http://www.w3.org/2000/svg"
   xmlns:sodipodi="http://sodipodi.sourceforge.net/DTD/sodipodi-0.dtd"
   xmlns:inkscape="http://www.inkscape.org/namespaces/inkscape"
   width="30.345093"
   height="15"
   viewBox="0 0 30.345093 15.000001"
   version="1.1"
   id="svg989"
   inkscape:version="0.92.4 5da689c313, 2019-01-14"
   sodipodi:docname="bar_meter_horizontal.svg">
  <sodipodi:namedview
     id="base"
     pagecolor="#ffffff"
     bordercolor="#666666"
     borderopacity="1.0"
     inkscape:pageopacity="0.0"
     inkscape:pageshadow="2"
     inkscape:zoom="71.181214"
     inkscape:cx="36.776704"
     inkscape:cy="17.825804"
     inkscape:document-units="px"
     inkscape:current-layer="layer1"
     showgrid="false"
     units="px"
     inkscape:pagecheckerboard="true"
     inkscape:showpageshadow="false"
     showborder="true"
     fit-margin-top="5"
     fit-margin-left="5"
     fit-margin-right="5"
     fit-margin-bottom="5" />
  <defs
     id="defs983">
    <linearGradient
       id="groove-highlight">
      <stop
         style="stop-color:#f3f3f3;stop-opacity:1;"
         offset="0"
         id="stop1694" />
    </linearGradient>
    <linearGradient
       id="groove"
       osb:paint="solid">
      <stop
         style="stop-color:#7c7c7c;stop-opacity:1;"
         offset="0"
         id="stop1062" />
    </linearGradient>
  </defs>
  <style
     id="current-color-scheme"
     type="text/css">
      .ColorScheme-Text {
      }
      .ColorScheme-Background{
      }
      .ColorScheme-Highlight{
      }
      .ColorScheme-ViewText {
      }
      .ColorScheme-ViewBackground{
      }
      .ColorScheme-ViewHover {
      }
      .ColorScheme-ViewFocus{
      }
      .ColorScheme-ButtonText {
      }
      .ColorScheme-ButtonBackground{
      }
      .ColorScheme-ButtonHover {
      }
      .ColorScheme-ButtonFocus{
      }
  </style>
  <metadata
     id="metadata986">
    <rdf:RDF>
      <cc:Work
         rdf:about="">
        <dc:format>image/svg+xml</dc:format>
        <dc:type
           rdf:resource="http://purl.org/dc/dcmitype/StillImage" />
        <dc:title />
      </cc:Work>
    </rdf:RDF>
  </metadata>
  <g
     inkscape:label="Layer 1"
     inkscape:groupmode="layer"
     id="layer1"
     transform="translate(-404.84921,-635.86279)">
    <rect
       style="opacity:1;fill:#008080;fill-opacity:1;fill-rule:evenodd;stroke:none;stroke-width:3.5999999;stroke-linecap:square;stroke-linejoin:miter;stroke-miterlimit:4;stroke-dasharray:none;stroke-opacity:0.40909095;paint-order:normal"
       id="hint-bar-size"
       width="9"
       height="9"
       x="404.62399"
       y="637.4787" />
    <rect
       class="ColorScheme-Highlight"
       y="630.33575"
       x="441.85913"
       height="3"
       width="3"
       id="bar-active-center"
       style="opacity:1;fill:currentColor;fill-opacity:1;fill-rule:evenodd;stroke:none;stroke-width:3.71893907;stroke-linecap:butt;stroke-linejoin:round;stroke-miterlimit:4;stroke-dasharray:none;stroke-dashoffset:0;stroke-opacity:1;paint-order:normal" />
    <rect
       class="ColorScheme-Text"
       y="632.43213"
       x="418.79852"
       height="3"
       width="3"
       id="bar-inactive-center"
       style="opacity:1;fill:#1f1f1f;fill-opacity:1;fill-rule:evenodd;stroke:none;stroke-width:3.71893907;stroke-linecap:butt;stroke-linejoin:round;stroke-miterlimit:4;stroke-dasharray:none;stroke-dashoffset:0;stroke-opacity:1;paint-order:normal" />
    <g
       id="bar-inactive-top"
       transform="translate(-0.01577759,1.2942505)">
      <rect
         class="ColorScheme-Text"
         y="628.13788"
         x="418.8143"
         height="3"
         width="3"
         id="rect842"
         style="opacity:1;fill:#1f1f1f;fill-opacity:1;fill-rule:evenodd;stroke:none;stroke-width:3.71893907;stroke-linecap:butt;stroke-linejoin:round;stroke-miterlimit:4;stroke-dasharray:none;stroke-dashoffset:0;stroke-opacity:1;paint-order:normal" />
      <rect
         style="opacity:1;fill:#686868;fill-opacity:1;fill-rule:evenodd;stroke:none;stroke-width:2.14713049;stroke-linecap:butt;stroke-linejoin:round;stroke-miterlimit:4;stroke-dasharray:none;stroke-dashoffset:0;stroke-opacity:1;paint-order:normal"
         id="rect836"
         width="3"
         height="1"
         x="418.8143"
         y="628.13788"
         class="ColorScheme-Text" />
    </g>
    <g
       transform="matrix(1,0,0,-1,-0.01577759,1266.57)"
       id="bar-inactive-bottom">
      <rect
         style="opacity:1;fill:#1f1f1f;fill-opacity:1;fill-rule:evenodd;stroke:none;stroke-width:3.71893907;stroke-linecap:butt;stroke-linejoin:round;stroke-miterlimit:4;stroke-dasharray:none;stroke-dashoffset:0;stroke-opacity:1;paint-order:normal"
         id="rect844"
         width="3"
         height="3"
         x="418.8143"
         y="628.13788"
         class="ColorScheme-Text" />
      <rect
         class="ColorScheme-Text"
         y="628.13788"
         x="418.8143"
         height="1"
         width="3"
         id="rect846"
         style="opacity:1;fill:#686868;fill-opacity:1;fill-rule:evenodd;stroke:none;stroke-width:2.14713049;stroke-linecap:butt;stroke-linejoin:round;stroke-miterlimit:4;stroke-dasharray:none;stroke-dashoffset:0;stroke-opacity:1;paint-order:normal" />
    </g>
    <g
       transform="rotate(90,419.65929,633.27711)"
       id="bar-inactive-right">
      <rect
         style="opacity:1;fill:#1f1f1f;fill-opacity:1;fill-rule:evenodd;stroke:none;stroke-width:3.71893907;stroke-linecap:butt;stroke-linejoin:round;stroke-miterlimit:4;stroke-dasharray:none;stroke-dashoffset:0;stroke-opacity:1;paint-order:normal"
         id="rect850"
         width="3"
         height="3"
         x="418.8143"
         y="628.13788"
         class="ColorScheme-Text" />
      <rect
         class="ColorScheme-Text"
         y="628.13788"
         x="418.8143"
         height="1"
         width="3"
         id="rect852"
         style="opacity:1;fill:#686868;fill-opacity:1;fill-rule:evenodd;stroke:none;stroke-width:2.14713049;stroke-linecap:butt;stroke-linejoin:round;stroke-miterlimit:4;stroke-dasharray:none;stroke-dashoffset:0;stroke-opacity:1;paint-order:normal" />
    </g>
    <g
       id="bar-inactive-left"
       transform="matrix(0,1,1,0,-212.33936,213.61782)">
      <rect
         class="ColorScheme-Text"
         y="628.13788"
         x="418.8143"
         height="3"
         width="3"
         id="rect856"
         style="opacity:1;fill:#1f1f1f;fill-opacity:1;fill-rule:evenodd;stroke:none;stroke-width:3.71893907;stroke-linecap:butt;stroke-linejoin:round;stroke-miterlimit:4;stroke-dasharray:none;stroke-dashoffset:0;stroke-opacity:1;paint-order:normal" />
      <rect
         style="opacity:1;fill:#686868;fill-opacity:1;fill-rule:evenodd;stroke:none;stroke-width:2.14713049;stroke-linecap:butt;stroke-linejoin:round;stroke-miterlimit:4;stroke-dasharray:none;stroke-dashoffset:0;stroke-opacity:1;paint-order:normal"
         id="rect858"
         width="3"
         height="1"
         x="418.8143"
         y="628.13788"
         class="ColorScheme-Text" />
    </g>
    <g
       id="bar-inactive-topright"
       transform="translate(-4.8477471,0.81457892)">
      <rect
         style="opacity:1;fill:#1f1f1f;fill-opacity:1;fill-rule:evenodd;stroke:none;stroke-width:3.71893907;stroke-linecap:butt;stroke-linejoin:round;stroke-miterlimit:4;stroke-dasharray:none;stroke-dashoffset:0;stroke-opacity:1;paint-order:normal"
         id="rect871"
         width="3"
         height="3"
         x="426.64627"
         y="628.61755"
         class="ColorScheme-Text" />
      <path
         inkscape:connector-curvature="0"
         id="rect862"
         d="m 426.64627,628.61755 v 1 h 2 v 2 h 1 v -3 z"
         style="opacity:1;fill:#686868;fill-opacity:1;fill-rule:evenodd;stroke:none;stroke-width:3.71893907;stroke-linecap:butt;stroke-linejoin:round;stroke-miterlimit:4;stroke-dasharray:none;stroke-dashoffset:0;stroke-opacity:1;paint-order:normal" />
    </g>
    <g
       transform="matrix(-1,0,0,1,845.44479,0.81456683)"
       id="bar-inactive-topleft">
      <rect
         class="ColorScheme-Text"
         y="628.61755"
         x="426.64627"
         height="3"
         width="3"
         id="rect873"
         style="opacity:1;fill:#1f1f1f;fill-opacity:1;fill-rule:evenodd;stroke:none;stroke-width:3.71893907;stroke-linecap:butt;stroke-linejoin:round;stroke-miterlimit:4;stroke-dasharray:none;stroke-dashoffset:0;stroke-opacity:1;paint-order:normal" />
      <path
         style="opacity:1;fill:#686868;fill-opacity:1;fill-rule:evenodd;stroke:none;stroke-width:3.71893907;stroke-linecap:butt;stroke-linejoin:round;stroke-miterlimit:4;stroke-dasharray:none;stroke-dashoffset:0;stroke-opacity:1;paint-order:normal"
         d="m 426.64627,628.61755 v 1 h 2 v 2 h 1 v -3 z"
         id="path875"
         inkscape:connector-curvature="0" />
    </g>
    <g
       transform="matrix(1,0,0,-1,-4.8477478,1267.0497)"
       id="bar-inactive-bottomright">
      <rect
         class="ColorScheme-Text"
         y="628.61755"
         x="426.64627"
         height="3"
         width="3"
         id="rect879"
         style="opacity:1;fill:#1f1f1f;fill-opacity:1;fill-rule:evenodd;stroke:none;stroke-width:3.71893907;stroke-linecap:butt;stroke-linejoin:round;stroke-miterlimit:4;stroke-dasharray:none;stroke-dashoffset:0;stroke-opacity:1;paint-order:normal" />
      <path
         style="opacity:1;fill:#686868;fill-opacity:1;fill-rule:evenodd;stroke:none;stroke-width:3.71893907;stroke-linecap:butt;stroke-linejoin:round;stroke-miterlimit:4;stroke-dasharray:none;stroke-dashoffset:0;stroke-opacity:1;paint-order:normal"
         d="m 426.64627,628.61755 v 1 h 2 v 2 h 1 v -3 z"
         id="path881"
         inkscape:connector-curvature="0" />
    </g>
    <g
       transform="rotate(-180,422.7224,633.52485)"
       id="bar-inactive-bottomleft">
      <rect
         class="ColorScheme-Text"
         y="628.61755"
         x="426.64627"
         height="3"
         width="3"
         id="rect885"
         style="opacity:1;fill:#1f1f1f;fill-opacity:1;fill-rule:evenodd;stroke:none;stroke-width:3.71893907;stroke-linecap:butt;stroke-linejoin:round;stroke-miterlimit:4;stroke-dasharray:none;stroke-dashoffset:0;stroke-opacity:1;paint-order:normal" />
      <path
         style="opacity:1;fill:#686868;fill-opacity:1;fill-rule:evenodd;stroke:none;stroke-width:3.71893907;stroke-linecap:butt;stroke-linejoin:round;stroke-miterlimit:4;stroke-dasharray:none;stroke-dashoffset:0;stroke-opacity:1;paint-order:normal"
         d="m 426.64627,628.61755 v 1 h 2 v 2 h 1 v -3 z"
         id="path887"
         inkscape:connector-curvature="0" />
    </g>
    <g
       id="bar-active-top"
       transform="translate(-0.15893555,5.9404297)">
      <rect
         class="ColorScheme-Highlight"
         y="621.39532"
         x="442.01807"
         height="3"
         width="3"
         id="rect897"
         style="opacity:1;fill:none;fill-opacity:1;fill-rule:evenodd;stroke:none;stroke-width:3.71893907;stroke-linecap:butt;stroke-linejoin:round;stroke-miterlimit:4;stroke-dasharray:none;stroke-dashoffset:0;stroke-opacity:1;paint-order:normal" />
      <rect
         style="opacity:1;fill:currentColor;fill-opacity:1;fill-rule:evenodd;stroke:none;stroke-width:2.14713049;stroke-linecap:butt;stroke-linejoin:round;stroke-miterlimit:4;stroke-dasharray:none;stroke-dashoffset:0;stroke-opacity:1;paint-order:normal"
         id="rect891"
         width="3"
         height="1"
         x="442.01807"
         y="623.39532"
         class="ColorScheme-Highlight" />
    </g>
    <g
       transform="matrix(1,0,0,-1,-0.15893281,1257.7311)"
       id="bar-active-bottom">
      <rect
         style="opacity:1;fill:none;fill-opacity:1;fill-rule:evenodd;stroke:none;stroke-width:3.71893907;stroke-linecap:butt;stroke-linejoin:round;stroke-miterlimit:4;stroke-dasharray:none;stroke-dashoffset:0;stroke-opacity:1;paint-order:normal"
         id="rect899"
         width="3"
         height="3"
         x="442.01807"
         y="621.39532"
         class="ColorScheme-Highlight" />
      <rect
         class="ColorScheme-Highlight"
         y="623.39532"
         x="442.01807"
         height="1"
         width="3"
         id="rect901"
         style="opacity:1;fill:currentColor;fill-opacity:1;fill-rule:evenodd;stroke:none;stroke-width:2.14713049;stroke-linecap:butt;stroke-linejoin:round;stroke-miterlimit:4;stroke-dasharray:none;stroke-dashoffset:0;stroke-opacity:1;paint-order:normal" />
    </g>
    <g
       transform="rotate(-90,446.40881,628.94501)"
       id="bar-active-left">
      <rect
         style="opacity:1;fill:none;fill-opacity:1;fill-rule:evenodd;stroke:none;stroke-width:3.71893907;stroke-linecap:butt;stroke-linejoin:round;stroke-miterlimit:4;stroke-dasharray:none;stroke-dashoffset:0;stroke-opacity:1;paint-order:normal"
         id="rect905"
         width="3"
         height="3"
         x="442.01807"
         y="621.39532"
         class="ColorScheme-Highlight" />
      <rect
         class="ColorScheme-Highlight"
         y="623.39532"
         x="442.01807"
         height="1"
         width="3"
         id="rect907"
         style="opacity:1;fill:currentColor;fill-opacity:1;fill-rule:evenodd;stroke:none;stroke-width:2.14713049;stroke-linecap:butt;stroke-linejoin:round;stroke-miterlimit:4;stroke-dasharray:none;stroke-dashoffset:0;stroke-opacity:1;paint-order:normal" />
    </g>
    <g
       id="bar-active-right"
       transform="matrix(0,-1,-1,0,1069.2544,1075.3538)">
      <rect
         class="ColorScheme-Highlight"
         y="621.39532"
         x="442.01807"
         height="3"
         width="3"
         id="rect911"
         style="opacity:1;fill:none;fill-opacity:1;fill-rule:evenodd;stroke:none;stroke-width:3.71893907;stroke-linecap:butt;stroke-linejoin:round;stroke-miterlimit:4;stroke-dasharray:none;stroke-dashoffset:0;stroke-opacity:1;paint-order:normal" />
      <rect
         style="opacity:1;fill:currentColor;fill-opacity:1;fill-rule:evenodd;stroke:none;stroke-width:2.14713049;stroke-linecap:butt;stroke-linejoin:round;stroke-miterlimit:4;stroke-dasharray:none;stroke-dashoffset:0;stroke-opacity:1;paint-order:normal"
         id="rect913"
         width="3"
         height="1"
         x="442.01807"
         y="623.39532"
         class="ColorScheme-Highlight" />
    </g>
    <g
       id="bar-active-topright"
       transform="translate(-0.94125367,1.6015625)">
      <rect
         style="opacity:1;fill:none;fill-opacity:1;fill-rule:evenodd;stroke:none;stroke-width:3.71893907;stroke-linecap:butt;stroke-linejoin:round;stroke-miterlimit:4;stroke-dasharray:none;stroke-dashoffset:0;stroke-opacity:1;paint-order:normal"
         id="rect923"
         width="3"
         height="3"
         x="445.80038"
         y="625.73419"
         class="ColorScheme-Highlight" />
      <rect
         class="ColorScheme-Highlight"
         y="627.73419"
         x="445.80038"
         height="1"
         width="1"
         id="rect917"
         style="opacity:1;fill:currentColor;fill-opacity:1;fill-rule:evenodd;stroke:none;stroke-width:1.23964632;stroke-linecap:butt;stroke-linejoin:round;stroke-miterlimit:4;stroke-dasharray:none;stroke-dashoffset:0;stroke-opacity:1;paint-order:normal" />
    </g>
    <g
       transform="matrix(-1,0,0,1,887.65951,1.6015617)"
       id="bar-active-topleft">
      <rect
         class="ColorScheme-Highlight"
         y="625.73419"
         x="445.80038"
         height="3"
         width="3"
         id="rect925"
         style="opacity:1;fill:none;fill-opacity:1;fill-rule:evenodd;stroke:none;stroke-width:3.71893907;stroke-linecap:butt;stroke-linejoin:round;stroke-miterlimit:4;stroke-dasharray:none;stroke-dashoffset:0;stroke-opacity:1;paint-order:normal" />
      <rect
         style="opacity:1;fill:currentColor;fill-opacity:1;fill-rule:evenodd;stroke:none;stroke-width:1.23964632;stroke-linecap:butt;stroke-linejoin:round;stroke-miterlimit:4;stroke-dasharray:none;stroke-dashoffset:0;stroke-opacity:1;paint-order:normal"
         id="rect927"
         width="1"
         height="1"
         x="445.80038"
         y="627.73419"
         class="ColorScheme-Highlight" />
    </g>
    <g
       transform="matrix(1,0,0,-1,-0.94125093,1262.07)"
       id="bar-active-bottomright">
      <rect
         class="ColorScheme-Highlight"
         y="625.73419"
         x="445.80038"
         height="3"
         width="3"
         id="rect931"
         style="opacity:1;fill:none;fill-opacity:1;fill-rule:evenodd;stroke:none;stroke-width:3.71893907;stroke-linecap:butt;stroke-linejoin:round;stroke-miterlimit:4;stroke-dasharray:none;stroke-dashoffset:0;stroke-opacity:1;paint-order:normal" />
      <rect
         style="opacity:1;fill:currentColor;fill-opacity:1;fill-rule:evenodd;stroke:none;stroke-width:1.23964632;stroke-linecap:butt;stroke-linejoin:round;stroke-miterlimit:4;stroke-dasharray:none;stroke-dashoffset:0;stroke-opacity:1;paint-order:normal"
         id="rect933"
         width="1"
         height="1"
         x="445.80038"
         y="627.73419"
         class="ColorScheme-Highlight" />
    </g>
    <g
       transform="rotate(-180,443.82975,631.03495)"
       id="bar-active-bottomleft">
      <rect
         class="ColorScheme-Highlight"
         y="625.73419"
         x="445.80038"
         height="3"
         width="3"
         id="rect937"
         style="opacity:1;fill:none;fill-opacity:1;fill-rule:evenodd;stroke:none;stroke-width:3.71893907;stroke-linecap:butt;stroke-linejoin:round;stroke-miterlimit:4;stroke-dasharray:none;stroke-dashoffset:0;stroke-opacity:1;paint-order:normal" />
      <rect
         style="opacity:1;fill:currentColor;fill-opacity:1;fill-rule:evenodd;stroke:none;stroke-width:1.23964632;stroke-linecap:butt;stroke-linejoin:round;stroke-miterlimit:4;stroke-dasharray:none;stroke-dashoffset:0;stroke-opacity:1;paint-order:normal"
         id="rect939"
         width="1"
         height="1"
         x="445.80038"
         y="627.73419"
         class="ColorScheme-Highlight" />
    </g>
  </g>
</svg>
