<?xml version="1.0" encoding="UTF-8" standalone="no"?>
<!-- Created with Inkscape (http://www.inkscape.org/) -->

<svg
   xmlns:dc="http://purl.org/dc/elements/1.1/"
   xmlns:cc="http://creativecommons.org/ns#"
   xmlns:rdf="http://www.w3.org/1999/02/22-rdf-syntax-ns#"
   xmlns:svg="http://www.w3.org/2000/svg"
   xmlns="http://www.w3.org/2000/svg"
   xmlns:sodipodi="http://sodipodi.sourceforge.net/DTD/sodipodi-0.dtd"
   xmlns:inkscape="http://www.inkscape.org/namespaces/inkscape"
   id="svg2"
   height="149.68652"
   viewBox="0 0 297.80075 149.68652"
   version="1.0"
   width="297.80075"
   inkscape:version="0.92.4 5da689c313, 2019-01-14"
   sodipodi:docname="busywidget.svg">
  <defs
     id="defs36" />
  <style
     id="current-color-scheme"
     type="text/css">
      .ColorScheme-Text {
      }
      .ColorScheme-Background{
      }
      .ColorScheme-ViewText {
      }
      .ColorScheme-ViewBackground{
      }
      .ColorScheme-ViewHover {
      }
      .ColorScheme-ViewFocus{
      }
      .ColorScheme-ButtonText {
      }
      .ColorScheme-ButtonBackground{
      }
      .ColorScheme-ButtonHover {
      }
      .ColorScheme-ButtonFocus{
      }</style>
  <sodipodi:namedview
     pagecolor="#ffffff"
     bordercolor="#666666"
     borderopacity="1"
     objecttolerance="10"
     gridtolerance="10"
     guidetolerance="10"
     inkscape:pageopacity="0"
     inkscape:pageshadow="2"
     inkscape:window-width="1453"
     inkscape:window-height="883"
     id="namedview34"
     showgrid="false"
     inkscape:pagecheckerboard="true"
     inkscape:zoom="1.7882571"
     inkscape:cx="14.029643"
     inkscape:cy="73.446395"
     inkscape:current-layer="svg2"
     inkscape:window-x="194"
     inkscape:window-y="85"
     inkscape:window-maximized="0"
     inkscape:showpageshadow="false"
     fit-margin-top="10"
     fit-margin-left="10"
     fit-margin-right="10"
     fit-margin-bottom="10" />
  <metadata
     id="metadata7">
    <rdf:RDF>
      <cc:Work
         rdf:about="">
        <dc:format>image/svg+xml</dc:format>
        <dc:type
           rdf:resource="http://purl.org/dc/dcmitype/StillImage" />
        <dc:title />
      </cc:Work>
    </rdf:RDF>
  </metadata>
  <g
     id="g4422"
     transform="matrix(0.079592,0,0,0.079592,171.00486,44.891018)"
     style="fill:#000055;fill-opacity:0.13963964;stroke-width:82.18199921" />
  <g
     id="busywidget"
     style="fill:none"
     transform="translate(160.57322,10.412868)">
    <rect
       style="fill:none;fill-opacity:0.13963964;stroke-width:6.54099989"
       y="1.2736498"
       width="128"
       height="128"
       x="-0.77246106"
       id="rect4416" />
    <path
       sodipodi:open="true"
       d="M 116.56567,82.325581 A 55.997543,55.997543 0 0 1 62.888546,121.27017 55.997543,55.997543 0 0 1 9.686863,81.678555"
       sodipodi:end="2.844274"
       sodipodi:start="0.30942617"
       sodipodi:ry="55.997543"
       sodipodi:rx="55.997543"
       sodipodi:cy="65.273651"
       sodipodi:cx="63.227539"
       sodipodi:type="arc"
       class="ColorScheme-Text"
       style="fill:none;fill-opacity:1;stroke:currentColor;stroke-width:14;stroke-linecap:round;stroke-miterlimit:4;stroke-dasharray:none;stroke-opacity:1"
       id="XXY" />
    <path
       transform="scale(1,-1)"
       id="XXX"
       style="fill:none;fill-opacity:1;stroke:currentColor;stroke-width:14;stroke-linecap:round;stroke-miterlimit:4;stroke-dasharray:none;stroke-opacity:1"
       class="ColorScheme-Text"
       sodipodi:type="arc"
       sodipodi:cx="63.227539"
       sodipodi:cy="-65.614807"
       sodipodi:rx="55.997543"
       sodipodi:ry="55.997543"
       sodipodi:start="0.30942617"
       sodipodi:end="2.844274"
       d="M 116.56567,-48.562877 A 55.997543,55.997543 0 0 1 62.888546,-9.6182899 55.997543,55.997543 0 0 1 9.686863,-49.209904"
       sodipodi:open="true" />
  </g>
  <rect
     style="fill:#0000ff;fill-opacity:1;fill-rule:nonzero;stroke:none;stroke-width:0.42857125"
     id="hint-rotation-angle"
     width="6"
     height="6"
     x="135.6787"
     y="10" />
</svg>
