<?xml version="1.0" encoding="UTF-8" standalone="no"?>
<!-- Created with Inkscape (http://www.inkscape.org/) -->

<svg
   xmlns:dc="http://purl.org/dc/elements/1.1/"
   xmlns:cc="http://creativecommons.org/ns#"
   xmlns:rdf="http://www.w3.org/1999/02/22-rdf-syntax-ns#"
   xmlns:svg="http://www.w3.org/2000/svg"
   xmlns="http://www.w3.org/2000/svg"
   xmlns:xlink="http://www.w3.org/1999/xlink"
   xmlns:sodipodi="http://sodipodi.sourceforge.net/DTD/sodipodi-0.dtd"
   xmlns:inkscape="http://www.inkscape.org/namespaces/inkscape"
   width="400"
   height="400"
   viewBox="0 0 400 400"
   version="1.1"
   id="svg8"
   inkscape:version="0.92.4 5da689c313, 2019-01-14"
   sodipodi:docname="clock.svg">
  <defs
     id="defs2">
    <linearGradient
       inkscape:collect="always"
       id="linearGradient1343">
      <stop
         style="stop-color:#1e1e1e;stop-opacity:1"
         offset="0"
         id="stop1339" />
      <stop
         id="stop1347"
         offset="0.86759162"
         style="stop-color:#1f1f1f;stop-opacity:0.34234235" />
      <stop
         style="stop-color:#1f1f1f;stop-opacity:0"
         offset="1"
         id="stop1341" />
    </linearGradient>
    <radialGradient
       inkscape:collect="always"
       xlink:href="#linearGradient1343"
       id="radialGradient1345"
       cx="-487.58163"
       cy="351.90076"
       fx="-487.58163"
       fy="351.90076"
       r="109.65685"
       gradientUnits="userSpaceOnUse"
       gradientTransform="matrix(0.97687237,0,0,0.97687237,-11.276609,8.1386315)" />
  </defs>
  <style
     id="current-color-scheme"
     type="text/css">
      .ColorScheme-Text {
      }
      .ColorScheme-Background{
      }
      .ColorScheme-Highlight{
      }
      .ColorScheme-ViewText {
      }
      .ColorScheme-ViewBackground{
      }
      .ColorScheme-ViewHover {
      }
      .ColorScheme-ViewFocus{
      }
      .ColorScheme-ButtonText {
      }
      .ColorScheme-ButtonBackground{
      }
      .ColorScheme-ButtonHover {
      }
      .ColorScheme-ButtonFocus{
      }
  </style>
  <sodipodi:namedview
     id="base"
     pagecolor="#ffffff"
     bordercolor="#666666"
     borderopacity="1.0"
     inkscape:pageopacity="0.0"
     inkscape:pageshadow="2"
     inkscape:zoom="13.394991"
     inkscape:cx="384.55761"
     inkscape:cy="247.42558"
     inkscape:document-units="px"
     inkscape:current-layer="layer1"
     showgrid="false"
     units="px"
     inkscape:pagecheckerboard="true"
     inkscape:showpageshadow="false"
     showguides="true"
     inkscape:guide-bbox="true"
     inkscape:snap-global="false" />
  <metadata
     id="metadata5">
    <rdf:RDF>
      <cc:Work
         rdf:about="">
        <dc:format>image/svg+xml</dc:format>
        <dc:type
           rdf:resource="http://purl.org/dc/dcmitype/StillImage" />
        <dc:title />
      </cc:Work>
    </rdf:RDF>
  </metadata>
  <g
     inkscape:label="Layer 1"
     inkscape:groupmode="layer"
     id="layer1"
     transform="translate(0,-191.16665)">
    <g
       id="ClockFace"
       transform="translate(620.79741,10.98009)">
      <circle
         style="opacity:0.8;fill:none;fill-opacity:1;stroke:url(#radialGradient1345);stroke-width:11.72246838;stroke-miterlimit:4;stroke-dasharray:none"
         id="circle532"
         cx="-487.58163"
         cy="351.90076"
         r="101.25951"
         class="ColorScheme-Background" />
      <g
         id="g1479">
        <circle
           style="opacity:0.8;fill:currentColor;fill-opacity:1;stroke-width:0.14699249;stroke-miterlimit:4;stroke-dasharray:none"
           id="circle27"
           cx="-487.58163"
           cy="351.90076"
           r="98"
           class="ColorScheme-Background" />
        <g
           id="g1412"
           transform="translate(-592.20192,-6.010403)">
          <g
             transform="translate(-0.00270486,-0.00671734)"
             id="TicsBig">
            <rect
               class="ColorScheme-Highlight"
               style="opacity:1;fill:currentColor;fill-opacity:1;stroke-width:0.03406925;stroke-miterlimit:4;stroke-dasharray:none"
               id="rect29"
               width="3.5355337"
               height="20.682873"
               x="102.84873"
               y="264.83685"
               ry="1.7677668"
               inkscape:transform-center-x="0.0064918105"
               inkscape:transform-center-y="-82.739582" />
            <rect
               inkscape:transform-center-y="-71.651336"
               inkscape:transform-center-x="41.375418"
               ry="1.7677668"
               y="269.19644"
               x="-90.127029"
               height="20.682873"
               width="3.5355337"
               id="rect63"
               style="opacity:1;fill:currentColor;fill-opacity:1;stroke-width:0.03406925;stroke-miterlimit:4;stroke-dasharray:none"
               class="ColorScheme-Highlight"
               transform="rotate(-30)" />
            <rect
               transform="rotate(-60)"
               class="ColorScheme-Highlight"
               style="opacity:1;fill:currentColor;fill-opacity:1;stroke-width:0.03406925;stroke-miterlimit:4;stroke-dasharray:none"
               id="rect65"
               width="3.5355337"
               height="20.682873"
               x="-259.42874"
               y="176.48409"
               ry="1.7677668"
               inkscape:transform-center-x="71.657831"
               inkscape:transform-center-y="-41.364161" />
            <rect
               inkscape:transform-center-y="0.0065005177"
               inkscape:transform-center-x="82.739583"
               ry="1.7677668"
               y="11.541972"
               x="-359.69214"
               height="20.682873"
               width="3.5355337"
               id="rect67"
               style="opacity:1;fill:currentColor;fill-opacity:1;stroke-width:0.03406925;stroke-miterlimit:4;stroke-dasharray:none"
               class="ColorScheme-Highlight"
               transform="rotate(-90)" />
            <rect
               transform="rotate(-120)"
               class="ColorScheme-Highlight"
               style="opacity:1;fill:currentColor;fill-opacity:1;stroke-width:0.03406925;stroke-miterlimit:4;stroke-dasharray:none"
               id="rect69"
               width="3.5355337"
               height="20.682873"
               x="-364.05173"
               y="-181.43379"
               ry="1.7677668"
               inkscape:transform-center-x="71.651338"
               inkscape:transform-center-y="41.37542" />
            <rect
               inkscape:transform-center-y="71.657833"
               inkscape:transform-center-x="41.364182"
               ry="1.7677668"
               y="-350.7355"
               x="-271.33936"
               height="20.682873"
               width="3.5355337"
               id="rect71"
               style="opacity:1;fill:currentColor;fill-opacity:1;stroke-width:0.03406925;stroke-miterlimit:4;stroke-dasharray:none"
               class="ColorScheme-Highlight"
               transform="rotate(-150)" />
            <rect
               transform="scale(-1)"
               class="ColorScheme-Highlight"
               style="opacity:1;fill:currentColor;fill-opacity:1;stroke-width:0.03406925;stroke-miterlimit:4;stroke-dasharray:none"
               id="rect73"
               width="3.5355337"
               height="20.682873"
               x="-106.39724"
               y="-450.9989"
               ry="1.7677668"
               inkscape:transform-center-x="-0.0064808371"
               inkscape:transform-center-y="82.739594" />
            <rect
               inkscape:transform-center-y="71.651347"
               inkscape:transform-center-x="-41.375405"
               ry="1.7677668"
               y="-455.35849"
               x="86.578522"
               height="20.682873"
               width="3.5355337"
               id="rect75"
               style="opacity:1;fill:currentColor;fill-opacity:1;stroke-width:0.03406925;stroke-miterlimit:4;stroke-dasharray:none"
               class="ColorScheme-Highlight"
               transform="rotate(150)" />
            <rect
               transform="rotate(120)"
               class="ColorScheme-Highlight"
               style="opacity:1;fill:currentColor;fill-opacity:1;stroke-width:0.03406925;stroke-miterlimit:4;stroke-dasharray:none"
               id="rect77"
               width="3.5355337"
               height="20.682873"
               x="255.88023"
               y="-362.64612"
               ry="1.7677668"
               inkscape:transform-center-x="-71.657812"
               inkscape:transform-center-y="41.364184" />
            <rect
               inkscape:transform-center-y="-0.0064575675"
               inkscape:transform-center-x="-82.739582"
               ry="1.7677668"
               y="-197.70401"
               x="356.14365"
               height="20.682873"
               width="3.5355337"
               id="rect79"
               style="opacity:1;fill:currentColor;fill-opacity:1;stroke-width:0.03406925;stroke-miterlimit:4;stroke-dasharray:none"
               class="ColorScheme-Highlight"
               transform="rotate(90)" />
            <rect
               transform="rotate(60)"
               class="ColorScheme-Highlight"
               style="opacity:1;fill:currentColor;fill-opacity:1;stroke-width:0.03406925;stroke-miterlimit:4;stroke-dasharray:none"
               id="rect81"
               width="3.5355337"
               height="20.682873"
               x="360.50323"
               y="-4.7282515"
               ry="1.7677668"
               inkscape:transform-center-x="-71.651348"
               inkscape:transform-center-y="-41.375388" />
            <rect
               inkscape:transform-center-y="-71.657816"
               inkscape:transform-center-x="-41.364183"
               ry="1.7677668"
               y="164.57346"
               x="267.79086"
               height="20.682873"
               width="3.5355337"
               id="rect83"
               style="opacity:1;fill:currentColor;fill-opacity:1;stroke-width:0.03406925;stroke-miterlimit:4;stroke-dasharray:none"
               class="ColorScheme-Highlight"
               transform="rotate(30)" />
          </g>
          <g
             style="opacity:0.47999998"
             id="TicsSmall">
            <circle
               style="opacity:1;fill:#ffffff;fill-opacity:1;stroke-width:0.08702852;stroke-miterlimit:4;stroke-dasharray:none"
               id="path21"
               cx="104.6165"
               cy="357.90723"
               r="2" />
            <rect
               inkscape:transform-center-y="-82.736306"
               inkscape:transform-center-x="-8.6921329"
               ry="1.2820512"
               y="254.32304"
               x="139.95528"
               height="15"
               width="3"
               id="rect115"
               style="opacity:0.7;fill:currentColor;fill-opacity:1;stroke-width:0.02672612;stroke-miterlimit:4;stroke-dasharray:none"
               class="ColorScheme-Text"
               transform="rotate(6)" />
            <rect
               transform="rotate(12)"
               class="ColorScheme-Text"
               style="opacity:0.7;fill:currentColor;fill-opacity:1;stroke-width:0.02672612;stroke-miterlimit:4;stroke-dasharray:none"
               id="rect117"
               width="3"
               height="15"
               x="175.2442"
               y="237.64651"
               ry="1.2820512"
               inkscape:transform-center-x="-17.292814"
               inkscape:transform-center-y="-81.374497" />
            <rect
               inkscape:transform-center-y="-79.121129"
               inkscape:transform-center-x="-25.704026"
               ry="1.2820512"
               y="217.37265"
               x="208.59663"
               height="15"
               width="3"
               id="rect119"
               style="opacity:0.7;fill:currentColor;fill-opacity:1;stroke-width:0.02672612;stroke-miterlimit:4;stroke-dasharray:none"
               class="ColorScheme-Text"
               transform="rotate(18)" />
            <rect
               transform="rotate(24)"
               class="ColorScheme-Text"
               style="opacity:0.7;fill:currentColor;fill-opacity:1;stroke-width:0.02672612;stroke-miterlimit:4;stroke-dasharray:none"
               id="rect121"
               width="3"
               height="15"
               x="239.64717"
               y="193.72357"
               ry="1.2820512"
               inkscape:transform-center-x="-33.833626"
               inkscape:transform-center-y="-76.000888" />
            <rect
               inkscape:transform-center-y="-67.305683"
               inkscape:transform-center-x="-48.895743"
               ry="1.2820512"
               y="137.37032"
               x="293.51068"
               height="15"
               width="3"
               id="rect123"
               style="opacity:0.7;fill:currentColor;fill-opacity:1;stroke-width:0.02672612;stroke-miterlimit:4;stroke-dasharray:none"
               class="ColorScheme-Text"
               transform="rotate(36)" />
            <rect
               transform="rotate(42)"
               class="ColorScheme-Text"
               style="opacity:0.7;fill:currentColor;fill-opacity:1;stroke-width:0.02672612;stroke-miterlimit:4;stroke-dasharray:none"
               id="rect125"
               width="3"
               height="15"
               x="315.73352"
               y="105.28355"
               ry="1.2820512"
               inkscape:transform-center-x="-55.66325"
               inkscape:transform-center-y="-61.825991" />
            <rect
               inkscape:transform-center-y="-55.668904"
               inkscape:transform-center-x="-61.820899"
               ry="1.2820512"
               y="71.049644"
               x="334.48065"
               height="15"
               width="3"
               id="rect127"
               style="opacity:0.7;fill:currentColor;fill-opacity:1;stroke-width:0.02672612;stroke-miterlimit:4;stroke-dasharray:none"
               class="ColorScheme-Text"
               transform="rotate(48)" />
            <rect
               transform="rotate(54)"
               class="ColorScheme-Text"
               style="opacity:0.7;fill:currentColor;fill-opacity:1;stroke-width:0.02672612;stroke-miterlimit:4;stroke-dasharray:none"
               id="rect129"
               width="3"
               height="15"
               x="349.54666"
               y="35.043671"
               ry="1.2820512"
               inkscape:transform-center-x="-67.301221"
               inkscape:transform-center-y="-48.901901" />
            <rect
               inkscape:transform-center-y="-33.840564"
               inkscape:transform-center-x="-75.997806"
               ry="1.2820512"
               y="-40.691444"
               x="368.01721"
               height="15"
               width="3"
               id="rect131"
               style="opacity:0.7;fill:currentColor;fill-opacity:1;stroke-width:0.02672612;stroke-miterlimit:4;stroke-dasharray:none"
               class="ColorScheme-Text"
               transform="rotate(66)" />
            <rect
               transform="rotate(72)"
               class="ColorScheme-Text"
               style="opacity:0.7;fill:currentColor;fill-opacity:1;stroke-width:0.02672612;stroke-miterlimit:4;stroke-dasharray:none"
               id="rect133"
               width="3"
               height="15"
               x="371.21939"
               y="-79.590813"
               ry="1.2820512"
               inkscape:transform-center-x="-79.118785"
               inkscape:transform-center-y="-25.711239" />
            <rect
               inkscape:transform-center-y="-17.300232"
               inkscape:transform-center-x="-81.372922"
               ry="1.2820512"
               y="-118.61181"
               x="370.33792"
               height="15"
               width="3"
               id="rect135"
               style="opacity:0.7;fill:currentColor;fill-opacity:1;stroke-width:0.02672612;stroke-miterlimit:4;stroke-dasharray:none"
               class="ColorScheme-Text"
               transform="rotate(78)" />
            <rect
               transform="rotate(84)"
               class="ColorScheme-Text"
               style="opacity:0.7;fill:currentColor;fill-opacity:1;stroke-width:0.02672612;stroke-miterlimit:4;stroke-dasharray:none"
               id="rect137"
               width="3"
               height="15"
               x="365.38248"
               y="-157.3269"
               ry="1.2820512"
               inkscape:transform-center-x="-82.73552"
               inkscape:transform-center-y="-8.6996782" />
            <rect
               inkscape:transform-center-y="8.6920939"
               inkscape:transform-center-x="-82.736317"
               ry="1.2820512"
               y="-232.15071"
               x="343.51086"
               height="15"
               width="3"
               id="rect139"
               style="opacity:0.7;fill:currentColor;fill-opacity:1;stroke-width:0.02672612;stroke-miterlimit:4;stroke-dasharray:none"
               class="ColorScheme-Text"
               transform="rotate(96)" />
            <rect
               transform="rotate(102)"
               class="ColorScheme-Text"
               style="opacity:0.7;fill:currentColor;fill-opacity:1;stroke-width:0.02672612;stroke-miterlimit:4;stroke-dasharray:none"
               id="rect141"
               width="3"
               height="15"
               x="326.83435"
               y="-267.43964"
               ry="1.2820512"
               inkscape:transform-center-x="-81.374503"
               inkscape:transform-center-y="17.292788" />
            <rect
               inkscape:transform-center-y="25.704012"
               inkscape:transform-center-x="-79.121143"
               ry="1.2820512"
               y="-300.79208"
               x="306.56049"
               height="15"
               width="3"
               id="rect143"
               style="opacity:0.7;fill:currentColor;fill-opacity:1;stroke-width:0.02672612;stroke-miterlimit:4;stroke-dasharray:none"
               class="ColorScheme-Text"
               transform="rotate(108)" />
            <rect
               transform="rotate(114)"
               class="ColorScheme-Text"
               style="opacity:0.7;fill:currentColor;fill-opacity:1;stroke-width:0.02672612;stroke-miterlimit:4;stroke-dasharray:none"
               id="rect145"
               width="3"
               height="15"
               x="282.91141"
               y="-331.84262"
               ry="1.2820512"
               inkscape:transform-center-x="-76.000908"
               inkscape:transform-center-y="33.83362" />
            <rect
               inkscape:transform-center-y="48.895757"
               inkscape:transform-center-x="-67.305702"
               ry="1.2820512"
               y="-385.70615"
               x="226.55815"
               height="15"
               width="3"
               id="rect147"
               style="opacity:0.7;fill:currentColor;fill-opacity:1;stroke-width:0.02672612;stroke-miterlimit:4;stroke-dasharray:none"
               class="ColorScheme-Text"
               transform="rotate(126)" />
            <rect
               transform="rotate(132)"
               class="ColorScheme-Text"
               style="opacity:0.7;fill:currentColor;fill-opacity:1;stroke-width:0.02672612;stroke-miterlimit:4;stroke-dasharray:none"
               id="rect149"
               width="3"
               height="15"
               x="194.47139"
               y="-407.92899"
               ry="1.2820512"
               inkscape:transform-center-x="-61.825994"
               inkscape:transform-center-y="55.663256" />
            <rect
               inkscape:transform-center-y="61.820907"
               inkscape:transform-center-x="-55.668912"
               ry="1.2820512"
               y="-426.67612"
               x="160.23749"
               height="15"
               width="3"
               id="rect151"
               style="opacity:0.7;fill:currentColor;fill-opacity:1;stroke-width:0.02672612;stroke-miterlimit:4;stroke-dasharray:none"
               class="ColorScheme-Text"
               transform="rotate(138)" />
            <rect
               transform="rotate(144)"
               class="ColorScheme-Text"
               style="opacity:0.7;fill:currentColor;fill-opacity:1;stroke-width:0.02672612;stroke-miterlimit:4;stroke-dasharray:none"
               id="rect153"
               width="3"
               height="15"
               x="124.23151"
               y="-441.74213"
               ry="1.2820512"
               inkscape:transform-center-x="-48.901912"
               inkscape:transform-center-y="67.301227" />
            <rect
               inkscape:transform-center-y="75.997814"
               inkscape:transform-center-x="-33.840581"
               ry="1.2820512"
               y="-460.21268"
               x="48.496387"
               height="15"
               width="3"
               id="rect155"
               style="opacity:0.7;fill:currentColor;fill-opacity:1;stroke-width:0.02672612;stroke-miterlimit:4;stroke-dasharray:none"
               class="ColorScheme-Text"
               transform="rotate(156)" />
            <rect
               transform="rotate(162)"
               class="ColorScheme-Text"
               style="opacity:0.7;fill:currentColor;fill-opacity:1;stroke-width:0.02672612;stroke-miterlimit:4;stroke-dasharray:none"
               id="rect157"
               width="3"
               height="15"
               x="9.5970173"
               y="-463.41486"
               ry="1.2820512"
               inkscape:transform-center-x="-25.711267"
               inkscape:transform-center-y="79.118803" />
            <rect
               inkscape:transform-center-y="81.372936"
               inkscape:transform-center-x="-17.300249"
               ry="1.2820512"
               y="-462.53339"
               x="-29.423975"
               height="15"
               width="3"
               id="rect159"
               style="opacity:0.7;fill:currentColor;fill-opacity:1;stroke-width:0.02672612;stroke-miterlimit:4;stroke-dasharray:none"
               class="ColorScheme-Text"
               transform="rotate(168)" />
            <rect
               transform="rotate(174)"
               class="ColorScheme-Text"
               style="opacity:0.7;fill:currentColor;fill-opacity:1;stroke-width:0.02672612;stroke-miterlimit:4;stroke-dasharray:none"
               id="rect161"
               width="3"
               height="15"
               x="-68.139069"
               y="-457.57794"
               ry="1.2820512"
               inkscape:transform-center-x="-8.6996876"
               inkscape:transform-center-y="82.73553" />
            <rect
               inkscape:transform-center-y="82.736309"
               inkscape:transform-center-x="8.6921035"
               ry="1.2820512"
               y="-435.70633"
               x="-142.96288"
               height="15"
               width="3"
               id="rect163"
               style="opacity:0.7;fill:currentColor;fill-opacity:1;stroke-width:0.02672612;stroke-miterlimit:4;stroke-dasharray:none"
               class="ColorScheme-Text"
               transform="rotate(-174)" />
            <rect
               transform="rotate(-168)"
               class="ColorScheme-Text"
               style="opacity:0.7;fill:currentColor;fill-opacity:1;stroke-width:0.02672612;stroke-miterlimit:4;stroke-dasharray:none"
               id="rect165"
               width="3"
               height="15"
               x="-178.2518"
               y="-419.02982"
               ry="1.2820512"
               inkscape:transform-center-x="17.292791"
               inkscape:transform-center-y="81.374509" />
            <rect
               inkscape:transform-center-y="79.121142"
               inkscape:transform-center-x="25.704019"
               ry="1.2820512"
               y="-398.75595"
               x="-211.60423"
               height="15"
               width="3"
               id="rect167"
               style="opacity:0.7;fill:currentColor;fill-opacity:1;stroke-width:0.02672612;stroke-miterlimit:4;stroke-dasharray:none"
               class="ColorScheme-Text"
               transform="rotate(-162)" />
            <rect
               transform="rotate(-156)"
               class="ColorScheme-Text"
               style="opacity:0.7;fill:currentColor;fill-opacity:1;stroke-width:0.02672612;stroke-miterlimit:4;stroke-dasharray:none"
               id="rect169"
               width="3"
               height="15"
               x="-242.65477"
               y="-375.10687"
               ry="1.2820512"
               inkscape:transform-center-x="33.833621"
               inkscape:transform-center-y="76.000912" />
            <rect
               inkscape:transform-center-y="67.305689"
               inkscape:transform-center-x="48.895755"
               ry="1.2820512"
               y="-318.7536"
               x="-296.51828"
               height="15"
               width="3"
               id="rect171"
               style="opacity:0.7;fill:currentColor;fill-opacity:1;stroke-width:0.02672612;stroke-miterlimit:4;stroke-dasharray:none"
               class="ColorScheme-Text"
               transform="rotate(-144)" />
            <rect
               transform="rotate(-138)"
               class="ColorScheme-Text"
               style="opacity:0.7;fill:currentColor;fill-opacity:1;stroke-width:0.02672612;stroke-miterlimit:4;stroke-dasharray:none"
               id="rect173"
               width="3"
               height="15"
               x="-318.74112"
               y="-286.66684"
               ry="1.2820512"
               inkscape:transform-center-x="55.663261"
               inkscape:transform-center-y="61.825977" />
            <rect
               inkscape:transform-center-y="55.668897"
               inkscape:transform-center-x="61.820904"
               ry="1.2820512"
               y="-252.43294"
               x="-337.48825"
               height="15"
               width="3"
               id="rect175"
               style="opacity:0.7;fill:currentColor;fill-opacity:1;stroke-width:0.02672612;stroke-miterlimit:4;stroke-dasharray:none"
               class="ColorScheme-Text"
               transform="rotate(-132)" />
            <rect
               transform="rotate(-126)"
               class="ColorScheme-Text"
               style="opacity:0.7;fill:currentColor;fill-opacity:1;stroke-width:0.02672612;stroke-miterlimit:4;stroke-dasharray:none"
               id="rect177"
               width="3"
               height="15"
               x="-352.55426"
               y="-216.42696"
               ry="1.2820512"
               inkscape:transform-center-x="67.301222"
               inkscape:transform-center-y="48.901888" />
            <rect
               inkscape:transform-center-y="33.840554"
               inkscape:transform-center-x="75.997794"
               ry="1.2820512"
               y="-140.69183"
               x="-371.02481"
               height="15"
               width="3"
               id="rect179"
               style="opacity:0.7;fill:currentColor;fill-opacity:1;stroke-width:0.02672612;stroke-miterlimit:4;stroke-dasharray:none"
               class="ColorScheme-Text"
               transform="rotate(-114)" />
            <rect
               transform="rotate(-108)"
               class="ColorScheme-Text"
               style="opacity:0.7;fill:currentColor;fill-opacity:1;stroke-width:0.02672612;stroke-miterlimit:4;stroke-dasharray:none"
               id="rect181"
               width="3"
               height="15"
               x="-374.22699"
               y="-101.79247"
               ry="1.2820512"
               inkscape:transform-center-x="79.118777"
               inkscape:transform-center-y="25.711251" />
            <rect
               inkscape:transform-center-y="17.300232"
               inkscape:transform-center-x="81.372916"
               ry="1.2820512"
               y="-62.771481"
               x="-373.34552"
               height="15"
               width="3"
               id="rect183"
               style="opacity:0.7;fill:currentColor;fill-opacity:1;stroke-width:0.02672612;stroke-miterlimit:4;stroke-dasharray:none"
               class="ColorScheme-Text"
               transform="rotate(-102)" />
            <rect
               transform="rotate(-96)"
               class="ColorScheme-Text"
               style="opacity:0.7;fill:currentColor;fill-opacity:1;stroke-width:0.02672612;stroke-miterlimit:4;stroke-dasharray:none"
               id="rect185"
               width="3"
               height="15"
               x="-368.39008"
               y="-24.056387"
               ry="1.2820512"
               inkscape:transform-center-x="82.735514"
               inkscape:transform-center-y="8.6996689" />
            <rect
               inkscape:transform-center-y="-8.6921383"
               inkscape:transform-center-x="82.736304"
               ry="1.2820512"
               y="50.767422"
               x="-346.51846"
               height="15"
               width="3"
               id="rect187"
               style="opacity:0.7;fill:currentColor;fill-opacity:1;stroke-width:0.02672612;stroke-miterlimit:4;stroke-dasharray:none"
               class="ColorScheme-Text"
               transform="rotate(-84)" />
            <rect
               transform="rotate(-78)"
               class="ColorScheme-Text"
               style="opacity:0.7;fill:currentColor;fill-opacity:1;stroke-width:0.02672612;stroke-miterlimit:4;stroke-dasharray:none"
               id="rect189"
               width="3"
               height="15"
               x="-329.84195"
               y="86.056351"
               ry="1.2820512"
               inkscape:transform-center-x="81.374491"
               inkscape:transform-center-y="-17.292809" />
            <rect
               inkscape:transform-center-y="-25.704026"
               inkscape:transform-center-x="79.121122"
               ry="1.2820512"
               y="119.40879"
               x="-309.56808"
               height="15"
               width="3"
               id="rect191"
               style="opacity:0.7;fill:currentColor;fill-opacity:1;stroke-width:0.02672612;stroke-miterlimit:4;stroke-dasharray:none"
               class="ColorScheme-Text"
               transform="rotate(-72)" />
            <rect
               transform="rotate(-66)"
               class="ColorScheme-Text"
               style="opacity:0.7;fill:currentColor;fill-opacity:1;stroke-width:0.02672612;stroke-miterlimit:4;stroke-dasharray:none"
               id="rect193"
               width="3"
               height="15"
               x="-285.91901"
               y="150.45932"
               ry="1.2820512"
               inkscape:transform-center-x="76.000893"
               inkscape:transform-center-y="-33.833624" />
            <rect
               inkscape:transform-center-y="-48.895755"
               inkscape:transform-center-x="67.305695"
               ry="1.2820512"
               y="204.32283"
               x="-229.56575"
               height="15"
               width="3"
               id="rect195"
               style="opacity:0.7;fill:currentColor;fill-opacity:1;stroke-width:0.02672612;stroke-miterlimit:4;stroke-dasharray:none"
               class="ColorScheme-Text"
               transform="rotate(-54)" />
            <rect
               transform="rotate(-48)"
               class="ColorScheme-Text"
               style="opacity:0.7;fill:currentColor;fill-opacity:1;stroke-width:0.02672612;stroke-miterlimit:4;stroke-dasharray:none"
               id="rect197"
               width="3"
               height="15"
               x="-197.47899"
               y="226.54567"
               ry="1.2820512"
               inkscape:transform-center-x="61.825991"
               inkscape:transform-center-y="-55.663266" />
            <rect
               inkscape:transform-center-y="-61.820908"
               inkscape:transform-center-x="55.668904"
               ry="1.2820512"
               y="245.2928"
               x="-163.24509"
               height="15"
               width="3"
               id="rect199"
               style="opacity:0.7;fill:currentColor;fill-opacity:1;stroke-width:0.02672612;stroke-miterlimit:4;stroke-dasharray:none"
               class="ColorScheme-Text"
               transform="rotate(-42)" />
            <rect
               transform="rotate(-36)"
               class="ColorScheme-Text"
               style="opacity:0.7;fill:currentColor;fill-opacity:1;stroke-width:0.02672612;stroke-miterlimit:4;stroke-dasharray:none"
               id="rect201"
               width="3"
               height="15"
               x="-127.23911"
               y="260.35883"
               ry="1.2820512"
               inkscape:transform-center-x="48.901892"
               inkscape:transform-center-y="-67.30122" />
            <rect
               inkscape:transform-center-y="-75.997801"
               inkscape:transform-center-x="33.840553"
               ry="1.2820512"
               y="278.82938"
               x="-51.503994"
               height="15"
               width="3"
               id="rect203"
               style="opacity:0.7;fill:currentColor;fill-opacity:1;stroke-width:0.02672612;stroke-miterlimit:4;stroke-dasharray:none"
               class="ColorScheme-Text"
               transform="rotate(-24)" />
            <rect
               transform="rotate(-18)"
               class="ColorScheme-Text"
               style="opacity:0.7;fill:currentColor;fill-opacity:1;stroke-width:0.02672612;stroke-miterlimit:4;stroke-dasharray:none"
               id="rect205"
               width="3"
               height="15"
               x="-12.604624"
               y="282.03156"
               ry="1.2820512"
               inkscape:transform-center-x="25.711235"
               inkscape:transform-center-y="-79.118769" />
            <rect
               inkscape:transform-center-y="-81.37291"
               inkscape:transform-center-x="17.300225"
               ry="1.2820512"
               y="281.15009"
               x="26.416368"
               height="15"
               width="3"
               id="rect207"
               style="opacity:0.7;fill:currentColor;fill-opacity:1;stroke-width:0.02672612;stroke-miterlimit:4;stroke-dasharray:none"
               class="ColorScheme-Text"
               transform="rotate(-12)" />
            <rect
               transform="rotate(-6)"
               class="ColorScheme-Text"
               style="opacity:0.7;fill:currentColor;fill-opacity:1;stroke-width:0.02672612;stroke-miterlimit:4;stroke-dasharray:none"
               id="rect209"
               width="3"
               height="15"
               x="65.131462"
               y="276.19464"
               ry="1.2820512"
               inkscape:transform-center-x="8.6996683"
               inkscape:transform-center-y="-82.735511" />
          </g>
        </g>
      </g>
    </g>
    <g
       id="MinuteHand">
      <rect
         y="339.1387"
         x="326.68332"
         height="100"
         width="12"
         id="rect1558"
         style="opacity:0.2;fill:none;fill-opacity:1;stroke-width:0.11094004;stroke-miterlimit:4;stroke-dasharray:none" />
      <rect
         style="opacity:1;fill:currentColor;fill-opacity:1;stroke-width:0.05216568;stroke-miterlimit:4;stroke-dasharray:none"
         id="rect1552"
         width="4"
         height="66.330696"
         x="330.68332"
         y="344.66315"
         class="ColorScheme-Text"
         ry="2" />
    </g>
    <g
       id="HourHand"
       transform="translate(41.806672,0.44792863)">
      <rect
         style="opacity:0.2;fill:none;fill-opacity:1;stroke-width:0.11094004;stroke-miterlimit:4;stroke-dasharray:none"
         id="rect1560"
         width="12"
         height="100"
         x="326.68332"
         y="339.1387" />
      <rect
         class="ColorScheme-Text"
         y="344.66315"
         x="330.68332"
         height="45.800629"
         width="4"
         id="rect1562"
         style="opacity:1;fill:currentColor;fill-opacity:1;stroke-width:0.04334743;stroke-miterlimit:4;stroke-dasharray:none"
         ry="2" />
    </g>
    <g
       id="SecondHand"
       transform="translate(81.224391,0.29861909)">
      <rect
         style="opacity:0.2;fill:none;fill-opacity:1;stroke-width:0.11094004;stroke-miterlimit:4;stroke-dasharray:none"
         id="rect1566"
         width="12"
         height="100"
         x="326.68332"
         y="339.1387" />
      <rect
         class="ColorScheme-Highlight"
         y="344.66315"
         x="331.63351"
         height="72.612572"
         width="2.0995998"
         id="rect1568"
         style="opacity:1;fill:currentColor;fill-opacity:1;stroke-width:0.03954319;stroke-miterlimit:4;stroke-dasharray:none"
         ry="1.0497999" />
    </g>
    <g
       id="HandCenterScrew"
       transform="matrix(1.1111111,0,0,1.1111111,-37.877923,-36.865377)">
      <rect
         y="313.78839"
         x="340.90131"
         height="18"
         width="18"
         id="rect1572"
         style="opacity:1;fill:none;fill-opacity:1;stroke:none;stroke-width:9.97909451;stroke-miterlimit:4;stroke-dasharray:none;stroke-opacity:0.34234236" />
      <ellipse
         ry="6.8395514"
         rx="6.839551"
         class="ColorScheme-Highlight"
         cy="322.78839"
         cx="349.90131"
         id="path1574"
         style="opacity:1;fill:none;fill-opacity:1;stroke:currentColor;stroke-width:2.5;stroke-miterlimit:4;stroke-dasharray:none;stroke-opacity:1" />
      <circle
         r="5.6796966"
         class="ColorScheme-Text"
         style="opacity:1;fill:currentColor;fill-opacity:1;stroke:none;stroke-width:1.76929045;stroke-miterlimit:4;stroke-dasharray:none;stroke-opacity:1"
         id="circle1582"
         cx="349.90131"
         cy="322.78839" />
    </g>
  </g>
</svg>
